#Wheel	DTMaddr	DTMchan	Zlayer	PHIstrawRODhalf	BUFposition
0	11	5	7	0	0	670
0	11	2	7	1	0	310
0	11	14	7	2	0	1750
0	11	9	7	3	0	1150
0	10	5	7	4	0	668
0	10	2	7	5	0	308
0	10	14	7	6	0	1748
0	10	9	7	7	0	1148
0	7	5	7	8	0	662
0	7	2	7	9	0	302
0	7	14	7	10	0	1742
0	7	9	7	11	0	1142
0	6	5	7	12	0	660
0	6	2	7	13	0	300
0	6	14	7	14	0	1740
0	6	9	7	15	0	1140
0	3	5	7	16	0	654
0	3	2	7	17	0	294
0	3	14	7	18	0	1734
0	3	9	7	19	0	1134
0	2	5	7	20	0	652
0	2	2	7	21	0	292
0	2	14	7	22	0	1732
0	2	9	7	23	0	1132
0	11	4	6	0	0	550
0	11	3	6	1	0	430
0	11	15	6	2	0	1870
0	11	8	6	3	0	1030
0	10	4	6	4	0	548
0	10	3	6	5	0	428
0	10	15	6	6	0	1868
0	10	8	6	7	0	1028
0	7	4	6	8	0	542
0	7	3	6	9	0	422
0	7	15	6	10	0	1862
0	7	8	6	11	0	1022
0	6	4	6	12	0	540
0	6	3	6	13	0	420
0	6	15	6	14	0	1860
0	6	8	6	15	0	1020
0	3	4	6	16	0	534
0	3	3	6	17	0	414
0	3	15	6	18	0	1854
0	3	8	6	19	0	1014
0	2	4	6	20	0	532
0	2	3	6	21	0	412
0	2	15	6	22	0	1852
0	2	8	6	23	0	1012
0	11	7	5	0	0	910
0	11	0	5	1	0	70
0	11	12	5	2	0	1510
0	11	11	5	3	0	1390
0	10	7	5	4	0	908
0	10	0	5	5	0	68
0	10	12	5	6	0	1508
0	10	11	5	7	0	1388
0	7	7	5	8	0	902
0	7	0	5	9	0	62
0	7	12	5	10	0	1502
0	7	11	5	11	0	1382
0	6	7	5	12	0	900
0	6	0	5	13	0	60
0	6	12	5	14	0	1500
0	6	11	5	15	0	1380
0	3	7	5	16	0	894
0	3	0	5	17	0	54
0	3	12	5	18	0	1494
0	3	11	5	19	0	1374
0	2	7	5	20	0	892
0	2	0	5	21	0	52
0	2	12	5	22	0	1492
0	2	11	5	23	0	1372
0	11	6	4	0	0	790
0	11	1	4	1	0	190
0	11	13	4	2	0	1630
0	11	10	4	3	0	1270
0	10	6	4	4	0	788
0	10	1	4	5	0	188
0	10	13	4	6	0	1628
0	10	10	4	7	0	1268
0	7	6	4	8	0	782
0	7	1	4	9	0	182
0	7	13	4	10	0	1622
0	7	10	4	11	0	1262
0	6	6	4	12	0	780
0	6	1	4	13	0	180
0	6	13	4	14	0	1620
0	6	10	4	15	0	1260
0	3	6	4	16	0	774
0	3	1	4	17	0	174
0	3	13	4	18	0	1614
0	3	10	4	19	0	1254
0	2	6	4	20	0	772
0	2	1	4	21	0	172
0	2	13	4	22	0	1612
0	2	10	4	23	0	1252
0	8	10	3	0	0	1264
0	8	13	3	1	0	1624
0	8	1	3	2	0	184
0	8	6	3	3	0	784
0	9	10	3	4	0	1266
0	9	13	3	5	0	1626
0	9	1	3	6	0	186
0	9	6	3	7	0	786
0	4	10	3	8	0	1256
0	4	13	3	9	0	1616
0	4	1	3	10	0	176
0	4	6	3	11	0	776
0	5	10	3	12	0	1258
0	5	13	3	13	0	1618
0	5	1	3	14	0	178
0	5	6	3	15	0	778
0	0	10	3	16	0	1248
0	0	13	3	17	0	1608
0	0	1	3	18	0	168
0	0	6	3	19	0	768
0	1	10	3	20	0	1250
0	1	13	3	21	0	1610
0	1	1	3	22	0	170
0	1	6	3	23	0	770
0	8	11	2	0	0	1384
0	8	12	2	1	0	1504
0	8	0	2	2	0	64
0	8	7	2	3	0	904
0	9	11	2	4	0	1386
0	9	12	2	5	0	1506
0	9	0	2	6	0	66
0	9	7	2	7	0	906
0	4	11	2	8	0	1376
0	4	12	2	9	0	1496
0	4	0	2	10	0	56
0	4	7	2	11	0	896
0	5	11	2	12	0	1378
0	5	12	2	13	0	1498
0	5	0	2	14	0	58
0	5	7	2	15	0	898
0	0	11	2	16	0	1368
0	0	12	2	17	0	1488
0	0	0	2	18	0	48
0	0	7	2	19	0	888
0	1	11	2	20	0	1370
0	1	12	2	21	0	1490
0	1	0	2	22	0	50
0	1	7	2	23	0	890
0	8	8	1	0	0	1024
0	8	15	1	1	0	1864
0	8	3	1	2	0	424
0	8	4	1	3	0	544
0	9	8	1	4	0	1026
0	9	15	1	5	0	1866
0	9	3	1	6	0	426
0	9	4	1	7	0	546
0	4	8	1	8	0	1016
0	4	15	1	9	0	1856
0	4	3	1	10	0	416
0	4	4	1	11	0	536
0	5	8	1	12	0	1018
0	5	15	1	13	0	1858
0	5	3	1	14	0	418
0	5	4	1	15	0	538
0	0	8	1	16	0	1008
0	0	15	1	17	0	1848
0	0	3	1	18	0	408
0	0	4	1	19	0	528
0	1	8	1	20	0	1010
0	1	15	1	21	0	1850
0	1	3	1	22	0	410
0	1	4	1	23	0	530
0	8	9	0	0	0	1144
0	8	14	0	1	0	1744
0	8	2	0	2	0	304
0	8	5	0	3	0	664
0	9	9	0	4	0	1146
0	9	14	0	5	0	1746
0	9	2	0	6	0	306
0	9	5	0	7	0	666
0	4	9	0	8	0	1136
0	4	14	0	9	0	1736
0	4	2	0	10	0	296
0	4	5	0	11	0	656
0	5	9	0	12	0	1138
0	5	14	0	13	0	1738
0	5	2	0	14	0	298
0	5	5	0	15	0	658
0	0	9	0	16	0	1128
0	0	14	0	17	0	1728
0	0	2	0	18	0	288
0	0	5	0	19	0	648
0	1	9	0	20	0	1130
0	1	14	0	21	0	1730
0	1	2	0	22	0	290
0	1	5	0	23	0	650
1	11	5	15	0	0	622
1	11	2	15	1	0	262
1	11	14	15	2	0	1702
1	11	9	15	3	0	1102
1	10	5	15	4	0	620
1	10	2	15	5	0	260
1	10	14	15	6	0	1700
1	10	9	15	7	0	1100
1	7	5	15	8	0	614
1	7	2	15	9	0	254
1	7	14	15	10	0	1694
1	7	9	15	11	0	1094
1	6	5	15	12	0	612
1	6	2	15	13	0	252
1	6	14	15	14	0	1692
1	6	9	15	15	0	1092
1	3	5	15	16	0	606
1	3	2	15	17	0	246
1	3	14	15	18	0	1686
1	3	9	15	19	0	1086
1	2	5	15	20	0	604
1	2	2	15	21	0	244
1	2	14	15	22	0	1684
1	2	9	15	23	0	1084
1	11	4	14	0	0	502
1	11	3	14	1	0	382
1	11	15	14	2	0	1822
1	11	8	14	3	0	982
1	10	4	14	4	0	500
1	10	3	14	5	0	380
1	10	15	14	6	0	1820
1	10	8	14	7	0	980
1	7	4	14	8	0	494
1	7	3	14	9	0	374
1	7	15	14	10	0	1814
1	7	8	14	11	0	974
1	6	4	14	12	0	492
1	6	3	14	13	0	372
1	6	15	14	14	0	1812
1	6	8	14	15	0	972
1	3	4	14	16	0	486
1	3	3	14	17	0	366
1	3	15	14	18	0	1806
1	3	8	14	19	0	966
1	2	4	14	20	0	484
1	2	3	14	21	0	364
1	2	15	14	22	0	1804
1	2	8	14	23	0	964
1	11	7	13	0	0	862
1	11	0	13	1	0	22
1	11	12	13	2	0	1462
1	11	11	13	3	0	1342
1	10	7	13	4	0	860
1	10	0	13	5	0	20
1	10	12	13	6	0	1460
1	10	11	13	7	0	1340
1	7	7	13	8	0	854
1	7	0	13	9	0	14
1	7	12	13	10	0	1454
1	7	11	13	11	0	1334
1	6	7	13	12	0	852
1	6	0	13	13	0	12
1	6	12	13	14	0	1452
1	6	11	13	15	0	1332
1	3	7	13	16	0	846
1	3	0	13	17	0	6
1	3	12	13	18	0	1446
1	3	11	13	19	0	1326
1	2	7	13	20	0	844
1	2	0	13	21	0	4
1	2	12	13	22	0	1444
1	2	11	13	23	0	1324
1	11	6	12	0	0	742
1	11	1	12	1	0	142
1	11	13	12	2	0	1582
1	11	10	12	3	0	1222
1	10	6	12	4	0	740
1	10	1	12	5	0	140
1	10	13	12	6	0	1580
1	10	10	12	7	0	1220
1	7	6	12	8	0	734
1	7	1	12	9	0	134
1	7	13	12	10	0	1574
1	7	10	12	11	0	1214
1	6	6	12	12	0	732
1	6	1	12	13	0	132
1	6	13	12	14	0	1572
1	6	10	12	15	0	1212
1	3	6	12	16	0	726
1	3	1	12	17	0	126
1	3	13	12	18	0	1566
1	3	10	12	19	0	1206
1	2	6	12	20	0	724
1	2	1	12	21	0	124
1	2	13	12	22	0	1564
1	2	10	12	23	0	1204
1	8	10	11	0	0	1216
1	8	13	11	1	0	1576
1	8	1	11	2	0	136
1	8	6	11	3	0	736
1	9	10	11	4	0	1218
1	9	13	11	5	0	1578
1	9	1	11	6	0	138
1	9	6	11	7	0	738
1	4	10	11	8	0	1208
1	4	13	11	9	0	1568
1	4	1	11	10	0	128
1	4	6	11	11	0	728
1	5	10	11	12	0	1210
1	5	13	11	13	0	1570
1	5	1	11	14	0	130
1	5	6	11	15	0	730
1	0	10	11	16	0	1200
1	0	13	11	17	0	1560
1	0	1	11	18	0	120
1	0	6	11	19	0	720
1	1	10	11	20	0	1202
1	1	13	11	21	0	1562
1	1	1	11	22	0	122
1	1	6	11	23	0	722
1	8	11	10	0	0	1336
1	8	12	10	1	0	1456
1	8	0	10	2	0	16
1	8	7	10	3	0	856
1	9	11	10	4	0	1338
1	9	12	10	5	0	1458
1	9	0	10	6	0	18
1	9	7	10	7	0	858
1	4	11	10	8	0	1328
1	4	12	10	9	0	1448
1	4	0	10	10	0	8
1	4	7	10	11	0	848
1	5	11	10	12	0	1330
1	5	12	10	13	0	1450
1	5	0	10	14	0	10
1	5	7	10	15	0	850
1	0	11	10	16	0	1320
1	0	12	10	17	0	1440
1	0	0	10	18	0	0
1	0	7	10	19	0	840
1	1	11	10	20	0	1322
1	1	12	10	21	0	1442
1	1	0	10	22	0	2
1	1	7	10	23	0	842
1	8	8	9	0	0	976
1	8	15	9	1	0	1816
1	8	3	9	2	0	376
1	8	4	9	3	0	496
1	9	8	9	4	0	978
1	9	15	9	5	0	1818
1	9	3	9	6	0	378
1	9	4	9	7	0	498
1	4	8	9	8	0	968
1	4	15	9	9	0	1808
1	4	3	9	10	0	368
1	4	4	9	11	0	488
1	5	8	9	12	0	970
1	5	15	9	13	0	1810
1	5	3	9	14	0	370
1	5	4	9	15	0	490
1	0	8	9	16	0	960
1	0	15	9	17	0	1800
1	0	3	9	18	0	360
1	0	4	9	19	0	480
1	1	8	9	20	0	962
1	1	15	9	21	0	1802
1	1	3	9	22	0	362
1	1	4	9	23	0	482
1	8	9	8	0	0	1096
1	8	14	8	1	0	1696
1	8	2	8	2	0	256
1	8	5	8	3	0	616
1	9	9	8	4	0	1098
1	9	14	8	5	0	1698
1	9	2	8	6	0	258
1	9	5	8	7	0	618
1	4	9	8	8	0	1088
1	4	14	8	9	0	1688
1	4	2	8	10	0	248
1	4	5	8	11	0	608
1	5	9	8	12	0	1090
1	5	14	8	13	0	1690
1	5	2	8	14	0	250
1	5	5	8	15	0	610
1	0	9	8	16	0	1080
1	0	14	8	17	0	1680
1	0	2	8	18	0	240
1	0	5	8	19	0	600
1	1	9	8	20	0	1082
1	1	14	8	21	0	1682
1	1	2	8	22	0	242
1	1	5	8	23	0	602
2	11	5	23	0	0	646
2	11	2	23	1	0	286
2	11	14	23	2	0	1726
2	11	9	23	3	0	1126
2	10	5	23	4	0	644
2	10	2	23	5	0	284
2	10	14	23	6	0	1724
2	10	9	23	7	0	1124
2	7	5	23	8	0	638
2	7	2	23	9	0	278
2	7	14	23	10	0	1718
2	7	9	23	11	0	1118
2	6	5	23	12	0	636
2	6	2	23	13	0	276
2	6	14	23	14	0	1716
2	6	9	23	15	0	1116
2	3	5	23	16	0	630
2	3	2	23	17	0	270
2	3	14	23	18	0	1710
2	3	9	23	19	0	1110
2	2	5	23	20	0	628
2	2	2	23	21	0	268
2	2	14	23	22	0	1708
2	2	9	23	23	0	1108
2	11	4	22	0	0	526
2	11	3	22	1	0	406
2	11	15	22	2	0	1846
2	11	8	22	3	0	1006
2	10	4	22	4	0	524
2	10	3	22	5	0	404
2	10	15	22	6	0	1844
2	10	8	22	7	0	1004
2	7	4	22	8	0	518
2	7	3	22	9	0	398
2	7	15	22	10	0	1838
2	7	8	22	11	0	998
2	6	4	22	12	0	516
2	6	3	22	13	0	396
2	6	15	22	14	0	1836
2	6	8	22	15	0	996
2	3	4	22	16	0	510
2	3	3	22	17	0	390
2	3	15	22	18	0	1830
2	3	8	22	19	0	990
2	2	4	22	20	0	508
2	2	3	22	21	0	388
2	2	15	22	22	0	1828
2	2	8	22	23	0	988
2	11	7	21	0	0	886
2	11	0	21	1	0	46
2	11	12	21	2	0	1486
2	11	11	21	3	0	1366
2	10	7	21	4	0	884
2	10	0	21	5	0	44
2	10	12	21	6	0	1484
2	10	11	21	7	0	1364
2	7	7	21	8	0	878
2	7	0	21	9	0	38
2	7	12	21	10	0	1478
2	7	11	21	11	0	1358
2	6	7	21	12	0	876
2	6	0	21	13	0	36
2	6	12	21	14	0	1476
2	6	11	21	15	0	1356
2	3	7	21	16	0	870
2	3	0	21	17	0	30
2	3	12	21	18	0	1470
2	3	11	21	19	0	1350
2	2	7	21	20	0	868
2	2	0	21	21	0	28
2	2	12	21	22	0	1468
2	2	11	21	23	0	1348
2	11	6	20	0	0	766
2	11	1	20	1	0	166
2	11	13	20	2	0	1606
2	11	10	20	3	0	1246
2	10	6	20	4	0	764
2	10	1	20	5	0	164
2	10	13	20	6	0	1604
2	10	10	20	7	0	1244
2	7	6	20	8	0	758
2	7	1	20	9	0	158
2	7	13	20	10	0	1598
2	7	10	20	11	0	1238
2	6	6	20	12	0	756
2	6	1	20	13	0	156
2	6	13	20	14	0	1596
2	6	10	20	15	0	1236
2	3	6	20	16	0	750
2	3	1	20	17	0	150
2	3	13	20	18	0	1590
2	3	10	20	19	0	1230
2	2	6	20	20	0	748
2	2	1	20	21	0	148
2	2	13	20	22	0	1588
2	2	10	20	23	0	1228
2	8	10	19	0	0	1240
2	8	13	19	1	0	1600
2	8	1	19	2	0	160
2	8	6	19	3	0	760
2	9	10	19	4	0	1242
2	9	13	19	5	0	1602
2	9	1	19	6	0	162
2	9	6	19	7	0	762
2	4	10	19	8	0	1232
2	4	13	19	9	0	1592
2	4	1	19	10	0	152
2	4	6	19	11	0	752
2	5	10	19	12	0	1234
2	5	13	19	13	0	1594
2	5	1	19	14	0	154
2	5	6	19	15	0	754
2	0	10	19	16	0	1224
2	0	13	19	17	0	1584
2	0	1	19	18	0	144
2	0	6	19	19	0	744
2	1	10	19	20	0	1226
2	1	13	19	21	0	1586
2	1	1	19	22	0	146
2	1	6	19	23	0	746
2	8	11	18	0	0	1360
2	8	12	18	1	0	1480
2	8	0	18	2	0	40
2	8	7	18	3	0	880
2	9	11	18	4	0	1362
2	9	12	18	5	0	1482
2	9	0	18	6	0	42
2	9	7	18	7	0	882
2	4	11	18	8	0	1352
2	4	12	18	9	0	1472
2	4	0	18	10	0	32
2	4	7	18	11	0	872
2	5	11	18	12	0	1354
2	5	12	18	13	0	1474
2	5	0	18	14	0	34
2	5	7	18	15	0	874
2	0	11	18	16	0	1344
2	0	12	18	17	0	1464
2	0	0	18	18	0	24
2	0	7	18	19	0	864
2	1	11	18	20	0	1346
2	1	12	18	21	0	1466
2	1	0	18	22	0	26
2	1	7	18	23	0	866
2	8	8	17	0	0	1000
2	8	15	17	1	0	1840
2	8	3	17	2	0	400
2	8	4	17	3	0	520
2	9	8	17	4	0	1002
2	9	15	17	5	0	1842
2	9	3	17	6	0	402
2	9	4	17	7	0	522
2	4	8	17	8	0	992
2	4	15	17	9	0	1832
2	4	3	17	10	0	392
2	4	4	17	11	0	512
2	5	8	17	12	0	994
2	5	15	17	13	0	1834
2	5	3	17	14	0	394
2	5	4	17	15	0	514
2	0	8	17	16	0	984
2	0	15	17	17	0	1824
2	0	3	17	18	0	384
2	0	4	17	19	0	504
2	1	8	17	20	0	986
2	1	15	17	21	0	1826
2	1	3	17	22	0	386
2	1	4	17	23	0	506
2	8	9	16	0	0	1120
2	8	14	16	1	0	1720
2	8	2	16	2	0	280
2	8	5	16	3	0	640
2	9	9	16	4	0	1122
2	9	14	16	5	0	1722
2	9	2	16	6	0	282
2	9	5	16	7	0	642
2	4	9	16	8	0	1112
2	4	14	16	9	0	1712
2	4	2	16	10	0	272
2	4	5	16	11	0	632
2	5	9	16	12	0	1114
2	5	14	16	13	0	1714
2	5	2	16	14	0	274
2	5	5	16	15	0	634
2	0	9	16	16	0	1104
2	0	14	16	17	0	1704
2	0	2	16	18	0	264
2	0	5	16	19	0	624
2	1	9	16	20	0	1106
2	1	14	16	21	0	1706
2	1	2	16	22	0	266
2	1	5	16	23	0	626
3	11	5	31	0	0	694
3	11	2	31	1	0	334
3	11	14	31	2	0	1774
3	11	9	31	3	0	1174
3	10	5	31	4	0	692
3	10	2	31	5	0	332
3	10	14	31	6	0	1772
3	10	9	31	7	0	1172
3	7	5	31	8	0	686
3	7	2	31	9	0	326
3	7	14	31	10	0	1766
3	7	9	31	11	0	1166
3	6	5	31	12	0	684
3	6	2	31	13	0	324
3	6	14	31	14	0	1764
3	6	9	31	15	0	1164
3	3	5	31	16	0	678
3	3	2	31	17	0	318
3	3	14	31	18	0	1758
3	3	9	31	19	0	1158
3	2	5	31	20	0	676
3	2	2	31	21	0	316
3	2	14	31	22	0	1756
3	2	9	31	23	0	1156
3	11	4	30	0	0	574
3	11	3	30	1	0	454
3	11	15	30	2	0	1894
3	11	8	30	3	0	1054
3	10	4	30	4	0	572
3	10	3	30	5	0	452
3	10	15	30	6	0	1892
3	10	8	30	7	0	1052
3	7	4	30	8	0	566
3	7	3	30	9	0	446
3	7	15	30	10	0	1886
3	7	8	30	11	0	1046
3	6	4	30	12	0	564
3	6	3	30	13	0	444
3	6	15	30	14	0	1884
3	6	8	30	15	0	1044
3	3	4	30	16	0	558
3	3	3	30	17	0	438
3	3	15	30	18	0	1878
3	3	8	30	19	0	1038
3	2	4	30	20	0	556
3	2	3	30	21	0	436
3	2	15	30	22	0	1876
3	2	8	30	23	0	1036
3	11	7	29	0	0	934
3	11	0	29	1	0	94
3	11	12	29	2	0	1534
3	11	11	29	3	0	1414
3	10	7	29	4	0	932
3	10	0	29	5	0	92
3	10	12	29	6	0	1532
3	10	11	29	7	0	1412
3	7	7	29	8	0	926
3	7	0	29	9	0	86
3	7	12	29	10	0	1526
3	7	11	29	11	0	1406
3	6	7	29	12	0	924
3	6	0	29	13	0	84
3	6	12	29	14	0	1524
3	6	11	29	15	0	1404
3	3	7	29	16	0	918
3	3	0	29	17	0	78
3	3	12	29	18	0	1518
3	3	11	29	19	0	1398
3	2	7	29	20	0	916
3	2	0	29	21	0	76
3	2	12	29	22	0	1516
3	2	11	29	23	0	1396
3	11	6	28	0	0	814
3	11	1	28	1	0	214
3	11	13	28	2	0	1654
3	11	10	28	3	0	1294
3	10	6	28	4	0	812
3	10	1	28	5	0	212
3	10	13	28	6	0	1652
3	10	10	28	7	0	1292
3	7	6	28	8	0	806
3	7	1	28	9	0	206
3	7	13	28	10	0	1646
3	7	10	28	11	0	1286
3	6	6	28	12	0	804
3	6	1	28	13	0	204
3	6	13	28	14	0	1644
3	6	10	28	15	0	1284
3	3	6	28	16	0	798
3	3	1	28	17	0	198
3	3	13	28	18	0	1638
3	3	10	28	19	0	1278
3	2	6	28	20	0	796
3	2	1	28	21	0	196
3	2	13	28	22	0	1636
3	2	10	28	23	0	1276
3	8	10	27	0	0	1288
3	8	13	27	1	0	1648
3	8	1	27	2	0	208
3	8	6	27	3	0	808
3	9	10	27	4	0	1290
3	9	13	27	5	0	1650
3	9	1	27	6	0	210
3	9	6	27	7	0	810
3	4	10	27	8	0	1280
3	4	13	27	9	0	1640
3	4	1	27	10	0	200
3	4	6	27	11	0	800
3	5	10	27	12	0	1282
3	5	13	27	13	0	1642
3	5	1	27	14	0	202
3	5	6	27	15	0	802
3	0	10	27	16	0	1272
3	0	13	27	17	0	1632
3	0	1	27	18	0	192
3	0	6	27	19	0	792
3	1	10	27	20	0	1274
3	1	13	27	21	0	1634
3	1	1	27	22	0	194
3	1	6	27	23	0	794
3	8	11	26	0	0	1408
3	8	12	26	1	0	1528
3	8	0	26	2	0	88
3	8	7	26	3	0	928
3	9	11	26	4	0	1410
3	9	12	26	5	0	1530
3	9	0	26	6	0	90
3	9	7	26	7	0	930
3	4	11	26	8	0	1400
3	4	12	26	9	0	1520
3	4	0	26	10	0	80
3	4	7	26	11	0	920
3	5	11	26	12	0	1402
3	5	12	26	13	0	1522
3	5	0	26	14	0	82
3	5	7	26	15	0	922
3	0	11	26	16	0	1392
3	0	12	26	17	0	1512
3	0	0	26	18	0	72
3	0	7	26	19	0	912
3	1	11	26	20	0	1394
3	1	12	26	21	0	1514
3	1	0	26	22	0	74
3	1	7	26	23	0	914
3	8	8	25	0	0	1048
3	8	15	25	1	0	1888
3	8	3	25	2	0	448
3	8	4	25	3	0	568
3	9	8	25	4	0	1050
3	9	15	25	5	0	1890
3	9	3	25	6	0	450
3	9	4	25	7	0	570
3	4	8	25	8	0	1040
3	4	15	25	9	0	1880
3	4	3	25	10	0	440
3	4	4	25	11	0	560
3	5	8	25	12	0	1042
3	5	15	25	13	0	1882
3	5	3	25	14	0	442
3	5	4	25	15	0	562
3	0	8	25	16	0	1032
3	0	15	25	17	0	1872
3	0	3	25	18	0	432
3	0	4	25	19	0	552
3	1	8	25	20	0	1034
3	1	15	25	21	0	1874
3	1	3	25	22	0	434
3	1	4	25	23	0	554
3	8	9	24	0	0	1168
3	8	14	24	1	0	1768
3	8	2	24	2	0	328
3	8	5	24	3	0	688
3	9	9	24	4	0	1170
3	9	14	24	5	0	1770
3	9	2	24	6	0	330
3	9	5	24	7	0	690
3	4	9	24	8	0	1160
3	4	14	24	9	0	1760
3	4	2	24	10	0	320
3	4	5	24	11	0	680
3	5	9	24	12	0	1162
3	5	14	24	13	0	1762
3	5	2	24	14	0	322
3	5	5	24	15	0	682
3	0	9	24	16	0	1152
3	0	14	24	17	0	1752
3	0	2	24	18	0	312
3	0	5	24	19	0	672
3	1	9	24	20	0	1154
3	1	14	24	21	0	1754
3	1	2	24	22	0	314
3	1	5	24	23	0	674
4	11	5	39	0	0	647
4	11	2	39	1	0	287
4	11	14	39	2	0	1727
4	11	9	39	3	0	1127
4	10	5	39	4	0	645
4	10	2	39	5	0	285
4	10	14	39	6	0	1725
4	10	9	39	7	0	1125
4	7	5	39	8	0	639
4	7	2	39	9	0	279
4	7	14	39	10	0	1719
4	7	9	39	11	0	1119
4	6	5	39	12	0	637
4	6	2	39	13	0	277
4	6	14	39	14	0	1717
4	6	9	39	15	0	1117
4	3	5	39	16	0	631
4	3	2	39	17	0	271
4	3	14	39	18	0	1711
4	3	9	39	19	0	1111
4	2	5	39	20	0	629
4	2	2	39	21	0	269
4	2	14	39	22	0	1709
4	2	9	39	23	0	1109
4	11	4	38	0	0	527
4	11	3	38	1	0	407
4	11	15	38	2	0	1847
4	11	8	38	3	0	1007
4	10	4	38	4	0	525
4	10	3	38	5	0	405
4	10	15	38	6	0	1845
4	10	8	38	7	0	1005
4	7	4	38	8	0	519
4	7	3	38	9	0	399
4	7	15	38	10	0	1839
4	7	8	38	11	0	999
4	6	4	38	12	0	517
4	6	3	38	13	0	397
4	6	15	38	14	0	1837
4	6	8	38	15	0	997
4	3	4	38	16	0	511
4	3	3	38	17	0	391
4	3	15	38	18	0	1831
4	3	8	38	19	0	991
4	2	4	38	20	0	509
4	2	3	38	21	0	389
4	2	15	38	22	0	1829
4	2	8	38	23	0	989
4	11	7	37	0	0	887
4	11	0	37	1	0	47
4	11	12	37	2	0	1487
4	11	11	37	3	0	1367
4	10	7	37	4	0	885
4	10	0	37	5	0	45
4	10	12	37	6	0	1485
4	10	11	37	7	0	1365
4	7	7	37	8	0	879
4	7	0	37	9	0	39
4	7	12	37	10	0	1479
4	7	11	37	11	0	1359
4	6	7	37	12	0	877
4	6	0	37	13	0	37
4	6	12	37	14	0	1477
4	6	11	37	15	0	1357
4	3	7	37	16	0	871
4	3	0	37	17	0	31
4	3	12	37	18	0	1471
4	3	11	37	19	0	1351
4	2	7	37	20	0	869
4	2	0	37	21	0	29
4	2	12	37	22	0	1469
4	2	11	37	23	0	1349
4	11	6	36	0	0	767
4	11	1	36	1	0	167
4	11	13	36	2	0	1607
4	11	10	36	3	0	1247
4	10	6	36	4	0	765
4	10	1	36	5	0	165
4	10	13	36	6	0	1605
4	10	10	36	7	0	1245
4	7	6	36	8	0	759
4	7	1	36	9	0	159
4	7	13	36	10	0	1599
4	7	10	36	11	0	1239
4	6	6	36	12	0	757
4	6	1	36	13	0	157
4	6	13	36	14	0	1597
4	6	10	36	15	0	1237
4	3	6	36	16	0	751
4	3	1	36	17	0	151
4	3	13	36	18	0	1591
4	3	10	36	19	0	1231
4	2	6	36	20	0	749
4	2	1	36	21	0	149
4	2	13	36	22	0	1589
4	2	10	36	23	0	1229
4	8	10	35	0	0	1241
4	8	13	35	1	0	1601
4	8	1	35	2	0	161
4	8	6	35	3	0	761
4	9	10	35	4	0	1243
4	9	13	35	5	0	1603
4	9	1	35	6	0	163
4	9	6	35	7	0	763
4	4	10	35	8	0	1233
4	4	13	35	9	0	1593
4	4	1	35	10	0	153
4	4	6	35	11	0	753
4	5	10	35	12	0	1235
4	5	13	35	13	0	1595
4	5	1	35	14	0	155
4	5	6	35	15	0	755
4	0	10	35	16	0	1225
4	0	13	35	17	0	1585
4	0	1	35	18	0	145
4	0	6	35	19	0	745
4	1	10	35	20	0	1227
4	1	13	35	21	0	1587
4	1	1	35	22	0	147
4	1	6	35	23	0	747
4	8	11	34	0	0	1361
4	8	12	34	1	0	1481
4	8	0	34	2	0	41
4	8	7	34	3	0	881
4	9	11	34	4	0	1363
4	9	12	34	5	0	1483
4	9	0	34	6	0	43
4	9	7	34	7	0	883
4	4	11	34	8	0	1353
4	4	12	34	9	0	1473
4	4	0	34	10	0	33
4	4	7	34	11	0	873
4	5	11	34	12	0	1355
4	5	12	34	13	0	1475
4	5	0	34	14	0	35
4	5	7	34	15	0	875
4	0	11	34	16	0	1345
4	0	12	34	17	0	1465
4	0	0	34	18	0	25
4	0	7	34	19	0	865
4	1	11	34	20	0	1347
4	1	12	34	21	0	1467
4	1	0	34	22	0	27
4	1	7	34	23	0	867
4	8	8	33	0	0	1001
4	8	15	33	1	0	1841
4	8	3	33	2	0	401
4	8	4	33	3	0	521
4	9	8	33	4	0	1003
4	9	15	33	5	0	1843
4	9	3	33	6	0	403
4	9	4	33	7	0	523
4	4	8	33	8	0	993
4	4	15	33	9	0	1833
4	4	3	33	10	0	393
4	4	4	33	11	0	513
4	5	8	33	12	0	995
4	5	15	33	13	0	1835
4	5	3	33	14	0	395
4	5	4	33	15	0	515
4	0	8	33	16	0	985
4	0	15	33	17	0	1825
4	0	3	33	18	0	385
4	0	4	33	19	0	505
4	1	8	33	20	0	987
4	1	15	33	21	0	1827
4	1	3	33	22	0	387
4	1	4	33	23	0	507
4	8	9	32	0	0	1121
4	8	14	32	1	0	1721
4	8	2	32	2	0	281
4	8	5	32	3	0	641
4	9	9	32	4	0	1123
4	9	14	32	5	0	1723
4	9	2	32	6	0	283
4	9	5	32	7	0	643
4	4	9	32	8	0	1113
4	4	14	32	9	0	1713
4	4	2	32	10	0	273
4	4	5	32	11	0	633
4	5	9	32	12	0	1115
4	5	14	32	13	0	1715
4	5	2	32	14	0	275
4	5	5	32	15	0	635
4	0	9	32	16	0	1105
4	0	14	32	17	0	1705
4	0	2	32	18	0	265
4	0	5	32	19	0	625
4	1	9	32	20	0	1107
4	1	14	32	21	0	1707
4	1	2	32	22	0	267
4	1	5	32	23	0	627
5	11	5	47	0	0	718
5	11	2	47	1	0	358
5	11	14	47	2	0	1798
5	11	9	47	3	0	1198
5	10	5	47	4	0	716
5	10	2	47	5	0	356
5	10	14	47	6	0	1796
5	10	9	47	7	0	1196
5	7	5	47	8	0	710
5	7	2	47	9	0	350
5	7	14	47	10	0	1790
5	7	9	47	11	0	1190
5	6	5	47	12	0	708
5	6	2	47	13	0	348
5	6	14	47	14	0	1788
5	6	9	47	15	0	1188
5	3	5	47	16	0	702
5	3	2	47	17	0	342
5	3	14	47	18	0	1782
5	3	9	47	19	0	1182
5	2	5	47	20	0	700
5	2	2	47	21	0	340
5	2	14	47	22	0	1780
5	2	9	47	23	0	1180
5	11	4	46	0	0	598
5	11	3	46	1	0	478
5	11	15	46	2	0	1918
5	11	8	46	3	0	1078
5	10	4	46	4	0	596
5	10	3	46	5	0	476
5	10	15	46	6	0	1916
5	10	8	46	7	0	1076
5	7	4	46	8	0	590
5	7	3	46	9	0	470
5	7	15	46	10	0	1910
5	7	8	46	11	0	1070
5	6	4	46	12	0	588
5	6	3	46	13	0	468
5	6	15	46	14	0	1908
5	6	8	46	15	0	1068
5	3	4	46	16	0	582
5	3	3	46	17	0	462
5	3	15	46	18	0	1902
5	3	8	46	19	0	1062
5	2	4	46	20	0	580
5	2	3	46	21	0	460
5	2	15	46	22	0	1900
5	2	8	46	23	0	1060
5	11	7	45	0	0	958
5	11	0	45	1	0	118
5	11	12	45	2	0	1558
5	11	11	45	3	0	1438
5	10	7	45	4	0	956
5	10	0	45	5	0	116
5	10	12	45	6	0	1556
5	10	11	45	7	0	1436
5	7	7	45	8	0	950
5	7	0	45	9	0	110
5	7	12	45	10	0	1550
5	7	11	45	11	0	1430
5	6	7	45	12	0	948
5	6	0	45	13	0	108
5	6	12	45	14	0	1548
5	6	11	45	15	0	1428
5	3	7	45	16	0	942
5	3	0	45	17	0	102
5	3	12	45	18	0	1542
5	3	11	45	19	0	1422
5	2	7	45	20	0	940
5	2	0	45	21	0	100
5	2	12	45	22	0	1540
5	2	11	45	23	0	1420
5	11	6	44	0	0	838
5	11	1	44	1	0	238
5	11	13	44	2	0	1678
5	11	10	44	3	0	1318
5	10	6	44	4	0	836
5	10	1	44	5	0	236
5	10	13	44	6	0	1676
5	10	10	44	7	0	1316
5	7	6	44	8	0	830
5	7	1	44	9	0	230
5	7	13	44	10	0	1670
5	7	10	44	11	0	1310
5	6	6	44	12	0	828
5	6	1	44	13	0	228
5	6	13	44	14	0	1668
5	6	10	44	15	0	1308
5	3	6	44	16	0	822
5	3	1	44	17	0	222
5	3	13	44	18	0	1662
5	3	10	44	19	0	1302
5	2	6	44	20	0	820
5	2	1	44	21	0	220
5	2	13	44	22	0	1660
5	2	10	44	23	0	1300
5	8	10	43	0	0	1312
5	8	13	43	1	0	1672
5	8	1	43	2	0	232
5	8	6	43	3	0	832
5	9	10	43	4	0	1314
5	9	13	43	5	0	1674
5	9	1	43	6	0	234
5	9	6	43	7	0	834
5	4	10	43	8	0	1304
5	4	13	43	9	0	1664
5	4	1	43	10	0	224
5	4	6	43	11	0	824
5	5	10	43	12	0	1306
5	5	13	43	13	0	1666
5	5	1	43	14	0	226
5	5	6	43	15	0	826
5	0	10	43	16	0	1296
5	0	13	43	17	0	1656
5	0	1	43	18	0	216
5	0	6	43	19	0	816
5	1	10	43	20	0	1298
5	1	13	43	21	0	1658
5	1	1	43	22	0	218
5	1	6	43	23	0	818
5	8	11	42	0	0	1432
5	8	12	42	1	0	1552
5	8	0	42	2	0	112
5	8	7	42	3	0	952
5	9	11	42	4	0	1434
5	9	12	42	5	0	1554
5	9	0	42	6	0	114
5	9	7	42	7	0	954
5	4	11	42	8	0	1424
5	4	12	42	9	0	1544
5	4	0	42	10	0	104
5	4	7	42	11	0	944
5	5	11	42	12	0	1426
5	5	12	42	13	0	1546
5	5	0	42	14	0	106
5	5	7	42	15	0	946
5	0	11	42	16	0	1416
5	0	12	42	17	0	1536
5	0	0	42	18	0	96
5	0	7	42	19	0	936
5	1	11	42	20	0	1418
5	1	12	42	21	0	1538
5	1	0	42	22	0	98
5	1	7	42	23	0	938
5	8	8	41	0	0	1072
5	8	15	41	1	0	1912
5	8	3	41	2	0	472
5	8	4	41	3	0	592
5	9	8	41	4	0	1074
5	9	15	41	5	0	1914
5	9	3	41	6	0	474
5	9	4	41	7	0	594
5	4	8	41	8	0	1064
5	4	15	41	9	0	1904
5	4	3	41	10	0	464
5	4	4	41	11	0	584
5	5	8	41	12	0	1066
5	5	15	41	13	0	1906
5	5	3	41	14	0	466
5	5	4	41	15	0	586
5	0	8	41	16	0	1056
5	0	15	41	17	0	1896
5	0	3	41	18	0	456
5	0	4	41	19	0	576
5	1	8	41	20	0	1058
5	1	15	41	21	0	1898
5	1	3	41	22	0	458
5	1	4	41	23	0	578
5	8	9	40	0	0	1192
5	8	14	40	1	0	1792
5	8	2	40	2	0	352
5	8	5	40	3	0	712
5	9	9	40	4	0	1194
5	9	14	40	5	0	1794
5	9	2	40	6	0	354
5	9	5	40	7	0	714
5	4	9	40	8	0	1184
5	4	14	40	9	0	1784
5	4	2	40	10	0	344
5	4	5	40	11	0	704
5	5	9	40	12	0	1186
5	5	14	40	13	0	1786
5	5	2	40	14	0	346
5	5	5	40	15	0	706
5	0	9	40	16	0	1176
5	0	14	40	17	0	1776
5	0	2	40	18	0	336
5	0	5	40	19	0	696
5	1	9	40	20	0	1178
5	1	14	40	21	0	1778
5	1	2	40	22	0	338
5	1	5	40	23	0	698
6	11	5	55	0	0	623
6	11	2	55	1	0	263
6	11	14	55	2	0	1703
6	11	9	55	3	0	1103
6	10	5	55	4	0	621
6	10	2	55	5	0	261
6	10	14	55	6	0	1701
6	10	9	55	7	0	1101
6	7	5	55	8	0	615
6	7	2	55	9	0	255
6	7	14	55	10	0	1695
6	7	9	55	11	0	1095
6	6	5	55	12	0	613
6	6	2	55	13	0	253
6	6	14	55	14	0	1693
6	6	9	55	15	0	1093
6	3	5	55	16	0	607
6	3	2	55	17	0	247
6	3	14	55	18	0	1687
6	3	9	55	19	0	1087
6	2	5	55	20	0	605
6	2	2	55	21	0	245
6	2	14	55	22	0	1685
6	2	9	55	23	0	1085
6	11	4	54	0	0	503
6	11	3	54	1	0	383
6	11	15	54	2	0	1823
6	11	8	54	3	0	983
6	10	4	54	4	0	501
6	10	3	54	5	0	381
6	10	15	54	6	0	1821
6	10	8	54	7	0	981
6	7	4	54	8	0	495
6	7	3	54	9	0	375
6	7	15	54	10	0	1815
6	7	8	54	11	0	975
6	6	4	54	12	0	493
6	6	3	54	13	0	373
6	6	15	54	14	0	1813
6	6	8	54	15	0	973
6	3	4	54	16	0	487
6	3	3	54	17	0	367
6	3	15	54	18	0	1807
6	3	8	54	19	0	967
6	2	4	54	20	0	485
6	2	3	54	21	0	365
6	2	15	54	22	0	1805
6	2	8	54	23	0	965
6	11	7	53	0	0	863
6	11	0	53	1	0	23
6	11	12	53	2	0	1463
6	11	11	53	3	0	1343
6	10	7	53	4	0	861
6	10	0	53	5	0	21
6	10	12	53	6	0	1461
6	10	11	53	7	0	1341
6	7	7	53	8	0	855
6	7	0	53	9	0	15
6	7	12	53	10	0	1455
6	7	11	53	11	0	1335
6	6	7	53	12	0	853
6	6	0	53	13	0	13
6	6	12	53	14	0	1453
6	6	11	53	15	0	1333
6	3	7	53	16	0	847
6	3	0	53	17	0	7
6	3	12	53	18	0	1447
6	3	11	53	19	0	1327
6	2	7	53	20	0	845
6	2	0	53	21	0	5
6	2	12	53	22	0	1445
6	2	11	53	23	0	1325
6	11	6	52	0	0	743
6	11	1	52	1	0	143
6	11	13	52	2	0	1583
6	11	10	52	3	0	1223
6	10	6	52	4	0	741
6	10	1	52	5	0	141
6	10	13	52	6	0	1581
6	10	10	52	7	0	1221
6	7	6	52	8	0	735
6	7	1	52	9	0	135
6	7	13	52	10	0	1575
6	7	10	52	11	0	1215
6	6	6	52	12	0	733
6	6	1	52	13	0	133
6	6	13	52	14	0	1573
6	6	10	52	15	0	1213
6	3	6	52	16	0	727
6	3	1	52	17	0	127
6	3	13	52	18	0	1567
6	3	10	52	19	0	1207
6	2	6	52	20	0	725
6	2	1	52	21	0	125
6	2	13	52	22	0	1565
6	2	10	52	23	0	1205
6	8	10	51	0	0	1217
6	8	13	51	1	0	1577
6	8	1	51	2	0	137
6	8	6	51	3	0	737
6	9	10	51	4	0	1219
6	9	13	51	5	0	1579
6	9	1	51	6	0	139
6	9	6	51	7	0	739
6	4	10	51	8	0	1209
6	4	13	51	9	0	1569
6	4	1	51	10	0	129
6	4	6	51	11	0	729
6	5	10	51	12	0	1211
6	5	13	51	13	0	1571
6	5	1	51	14	0	131
6	5	6	51	15	0	731
6	0	10	51	16	0	1201
6	0	13	51	17	0	1561
6	0	1	51	18	0	121
6	0	6	51	19	0	721
6	1	10	51	20	0	1203
6	1	13	51	21	0	1563
6	1	1	51	22	0	123
6	1	6	51	23	0	723
6	8	11	50	0	0	1337
6	8	12	50	1	0	1457
6	8	0	50	2	0	17
6	8	7	50	3	0	857
6	9	11	50	4	0	1339
6	9	12	50	5	0	1459
6	9	0	50	6	0	19
6	9	7	50	7	0	859
6	4	11	50	8	0	1329
6	4	12	50	9	0	1449
6	4	0	50	10	0	9
6	4	7	50	11	0	849
6	5	11	50	12	0	1331
6	5	12	50	13	0	1451
6	5	0	50	14	0	11
6	5	7	50	15	0	851
6	0	11	50	16	0	1321
6	0	12	50	17	0	1441
6	0	0	50	18	0	1
6	0	7	50	19	0	841
6	1	11	50	20	0	1323
6	1	12	50	21	0	1443
6	1	0	50	22	0	3
6	1	7	50	23	0	843
6	8	8	49	0	0	977
6	8	15	49	1	0	1817
6	8	3	49	2	0	377
6	8	4	49	3	0	497
6	9	8	49	4	0	979
6	9	15	49	5	0	1819
6	9	3	49	6	0	379
6	9	4	49	7	0	499
6	4	8	49	8	0	969
6	4	15	49	9	0	1809
6	4	3	49	10	0	369
6	4	4	49	11	0	489
6	5	8	49	12	0	971
6	5	15	49	13	0	1811
6	5	3	49	14	0	371
6	5	4	49	15	0	491
6	0	8	49	16	0	961
6	0	15	49	17	0	1801
6	0	3	49	18	0	361
6	0	4	49	19	0	481
6	1	8	49	20	0	963
6	1	15	49	21	0	1803
6	1	3	49	22	0	363
6	1	4	49	23	0	483
6	8	9	48	0	0	1097
6	8	14	48	1	0	1697
6	8	2	48	2	0	257
6	8	5	48	3	0	617
6	9	9	48	4	0	1099
6	9	14	48	5	0	1699
6	9	2	48	6	0	259
6	9	5	48	7	0	619
6	4	9	48	8	0	1089
6	4	14	48	9	0	1689
6	4	2	48	10	0	249
6	4	5	48	11	0	609
6	5	9	48	12	0	1091
6	5	14	48	13	0	1691
6	5	2	48	14	0	251
6	5	5	48	15	0	611
6	0	9	48	16	0	1081
6	0	14	48	17	0	1681
6	0	2	48	18	0	241
6	0	5	48	19	0	601
6	1	9	48	20	0	1083
6	1	14	48	21	0	1683
6	1	2	48	22	0	243
6	1	5	48	23	0	603
7	11	5	63	0	0	671
7	11	2	63	1	0	311
7	11	14	63	2	0	1751
7	11	9	63	3	0	1151
7	10	5	63	4	0	669
7	10	2	63	5	0	309
7	10	14	63	6	0	1749
7	10	9	63	7	0	1149
7	7	5	63	8	0	663
7	7	2	63	9	0	303
7	7	14	63	10	0	1743
7	7	9	63	11	0	1143
7	6	5	63	12	0	661
7	6	2	63	13	0	301
7	6	14	63	14	0	1741
7	6	9	63	15	0	1141
7	3	5	63	16	0	655
7	3	2	63	17	0	295
7	3	14	63	18	0	1735
7	3	9	63	19	0	1135
7	2	5	63	20	0	653
7	2	2	63	21	0	293
7	2	14	63	22	0	1733
7	2	9	63	23	0	1133
7	11	4	62	0	0	551
7	11	3	62	1	0	431
7	11	15	62	2	0	1871
7	11	8	62	3	0	1031
7	10	4	62	4	0	549
7	10	3	62	5	0	429
7	10	15	62	6	0	1869
7	10	8	62	7	0	1029
7	7	4	62	8	0	543
7	7	3	62	9	0	423
7	7	15	62	10	0	1863
7	7	8	62	11	0	1023
7	6	4	62	12	0	541
7	6	3	62	13	0	421
7	6	15	62	14	0	1861
7	6	8	62	15	0	1021
7	3	4	62	16	0	535
7	3	3	62	17	0	415
7	3	15	62	18	0	1855
7	3	8	62	19	0	1015
7	2	4	62	20	0	533
7	2	3	62	21	0	413
7	2	15	62	22	0	1853
7	2	8	62	23	0	1013
7	11	7	61	0	0	911
7	11	0	61	1	0	71
7	11	12	61	2	0	1511
7	11	11	61	3	0	1391
7	10	7	61	4	0	909
7	10	0	61	5	0	69
7	10	12	61	6	0	1509
7	10	11	61	7	0	1389
7	7	7	61	8	0	903
7	7	0	61	9	0	63
7	7	12	61	10	0	1503
7	7	11	61	11	0	1383
7	6	7	61	12	0	901
7	6	0	61	13	0	61
7	6	12	61	14	0	1501
7	6	11	61	15	0	1381
7	3	7	61	16	0	895
7	3	0	61	17	0	55
7	3	12	61	18	0	1495
7	3	11	61	19	0	1375
7	2	7	61	20	0	893
7	2	0	61	21	0	53
7	2	12	61	22	0	1493
7	2	11	61	23	0	1373
7	11	6	60	0	0	791
7	11	1	60	1	0	191
7	11	13	60	2	0	1631
7	11	10	60	3	0	1271
7	10	6	60	4	0	789
7	10	1	60	5	0	189
7	10	13	60	6	0	1629
7	10	10	60	7	0	1269
7	7	6	60	8	0	783
7	7	1	60	9	0	183
7	7	13	60	10	0	1623
7	7	10	60	11	0	1263
7	6	6	60	12	0	781
7	6	1	60	13	0	181
7	6	13	60	14	0	1621
7	6	10	60	15	0	1261
7	3	6	60	16	0	775
7	3	1	60	17	0	175
7	3	13	60	18	0	1615
7	3	10	60	19	0	1255
7	2	6	60	20	0	773
7	2	1	60	21	0	173
7	2	13	60	22	0	1613
7	2	10	60	23	0	1253
7	8	10	59	0	0	1265
7	8	13	59	1	0	1625
7	8	1	59	2	0	185
7	8	6	59	3	0	785
7	9	10	59	4	0	1267
7	9	13	59	5	0	1627
7	9	1	59	6	0	187
7	9	6	59	7	0	787
7	4	10	59	8	0	1257
7	4	13	59	9	0	1617
7	4	1	59	10	0	177
7	4	6	59	11	0	777
7	5	10	59	12	0	1259
7	5	13	59	13	0	1619
7	5	1	59	14	0	179
7	5	6	59	15	0	779
7	0	10	59	16	0	1249
7	0	13	59	17	0	1609
7	0	1	59	18	0	169
7	0	6	59	19	0	769
7	1	10	59	20	0	1251
7	1	13	59	21	0	1611
7	1	1	59	22	0	171
7	1	6	59	23	0	771
7	8	11	58	0	0	1385
7	8	12	58	1	0	1505
7	8	0	58	2	0	65
7	8	7	58	3	0	905
7	9	11	58	4	0	1387
7	9	12	58	5	0	1507
7	9	0	58	6	0	67
7	9	7	58	7	0	907
7	4	11	58	8	0	1377
7	4	12	58	9	0	1497
7	4	0	58	10	0	57
7	4	7	58	11	0	897
7	5	11	58	12	0	1379
7	5	12	58	13	0	1499
7	5	0	58	14	0	59
7	5	7	58	15	0	899
7	0	11	58	16	0	1369
7	0	12	58	17	0	1489
7	0	0	58	18	0	49
7	0	7	58	19	0	889
7	1	11	58	20	0	1371
7	1	12	58	21	0	1491
7	1	0	58	22	0	51
7	1	7	58	23	0	891
7	8	8	57	0	0	1025
7	8	15	57	1	0	1865
7	8	3	57	2	0	425
7	8	4	57	3	0	545
7	9	8	57	4	0	1027
7	9	15	57	5	0	1867
7	9	3	57	6	0	427
7	9	4	57	7	0	547
7	4	8	57	8	0	1017
7	4	15	57	9	0	1857
7	4	3	57	10	0	417
7	4	4	57	11	0	537
7	5	8	57	12	0	1019
7	5	15	57	13	0	1859
7	5	3	57	14	0	419
7	5	4	57	15	0	539
7	0	8	57	16	0	1009
7	0	15	57	17	0	1849
7	0	3	57	18	0	409
7	0	4	57	19	0	529
7	1	8	57	20	0	1011
7	1	15	57	21	0	1851
7	1	3	57	22	0	411
7	1	4	57	23	0	531
7	8	9	56	0	0	1145
7	8	14	56	1	0	1745
7	8	2	56	2	0	305
7	8	5	56	3	0	665
7	9	9	56	4	0	1147
7	9	14	56	5	0	1747
7	9	2	56	6	0	307
7	9	5	56	7	0	667
7	4	9	56	8	0	1137
7	4	14	56	9	0	1737
7	4	2	56	10	0	297
7	4	5	56	11	0	657
7	5	9	56	12	0	1139
7	5	14	56	13	0	1739
7	5	2	56	14	0	299
7	5	5	56	15	0	659
7	0	9	56	16	0	1129
7	0	14	56	17	0	1729
7	0	2	56	18	0	289
7	0	5	56	19	0	649
7	1	9	56	20	0	1131
7	1	14	56	21	0	1731
7	1	2	56	22	0	291
7	1	5	56	23	0	651
8	11	5	71	0	1	622
8	11	2	71	1	1	262
8	11	14	71	2	1	1702
8	11	9	71	3	1	1102
8	10	5	71	4	1	620
8	10	2	71	5	1	260
8	10	14	71	6	1	1700
8	10	9	71	7	1	1100
8	7	5	71	8	1	614
8	7	2	71	9	1	254
8	7	14	71	10	1	1694
8	7	9	71	11	1	1094
8	6	5	71	12	1	612
8	6	2	71	13	1	252
8	6	14	71	14	1	1692
8	6	9	71	15	1	1092
8	3	5	71	16	1	606
8	3	2	71	17	1	246
8	3	14	71	18	1	1686
8	3	9	71	19	1	1086
8	2	5	71	20	1	604
8	2	2	71	21	1	244
8	2	14	71	22	1	1684
8	2	9	71	23	1	1084
8	11	4	70	0	1	502
8	11	3	70	1	1	382
8	11	15	70	2	1	1822
8	11	8	70	3	1	982
8	10	4	70	4	1	500
8	10	3	70	5	1	380
8	10	15	70	6	1	1820
8	10	8	70	7	1	980
8	7	4	70	8	1	494
8	7	3	70	9	1	374
8	7	15	70	10	1	1814
8	7	8	70	11	1	974
8	6	4	70	12	1	492
8	6	3	70	13	1	372
8	6	15	70	14	1	1812
8	6	8	70	15	1	972
8	3	4	70	16	1	486
8	3	3	70	17	1	366
8	3	15	70	18	1	1806
8	3	8	70	19	1	966
8	2	4	70	20	1	484
8	2	3	70	21	1	364
8	2	15	70	22	1	1804
8	2	8	70	23	1	964
8	11	7	69	0	1	862
8	11	0	69	1	1	22
8	11	12	69	2	1	1462
8	11	11	69	3	1	1342
8	10	7	69	4	1	860
8	10	0	69	5	1	20
8	10	12	69	6	1	1460
8	10	11	69	7	1	1340
8	7	7	69	8	1	854
8	7	0	69	9	1	14
8	7	12	69	10	1	1454
8	7	11	69	11	1	1334
8	6	7	69	12	1	852
8	6	0	69	13	1	12
8	6	12	69	14	1	1452
8	6	11	69	15	1	1332
8	3	7	69	16	1	846
8	3	0	69	17	1	6
8	3	12	69	18	1	1446
8	3	11	69	19	1	1326
8	2	7	69	20	1	844
8	2	0	69	21	1	4
8	2	12	69	22	1	1444
8	2	11	69	23	1	1324
8	11	6	68	0	1	742
8	11	1	68	1	1	142
8	11	13	68	2	1	1582
8	11	10	68	3	1	1222
8	10	6	68	4	1	740
8	10	1	68	5	1	140
8	10	13	68	6	1	1580
8	10	10	68	7	1	1220
8	7	6	68	8	1	734
8	7	1	68	9	1	134
8	7	13	68	10	1	1574
8	7	10	68	11	1	1214
8	6	6	68	12	1	732
8	6	1	68	13	1	132
8	6	13	68	14	1	1572
8	6	10	68	15	1	1212
8	3	6	68	16	1	726
8	3	1	68	17	1	126
8	3	13	68	18	1	1566
8	3	10	68	19	1	1206
8	2	6	68	20	1	724
8	2	1	68	21	1	124
8	2	13	68	22	1	1564
8	2	10	68	23	1	1204
8	8	10	67	0	1	1216
8	8	13	67	1	1	1576
8	8	1	67	2	1	136
8	8	6	67	3	1	736
8	9	10	67	4	1	1218
8	9	13	67	5	1	1578
8	9	1	67	6	1	138
8	9	6	67	7	1	738
8	4	10	67	8	1	1208
8	4	13	67	9	1	1568
8	4	1	67	10	1	128
8	4	6	67	11	1	728
8	5	10	67	12	1	1210
8	5	13	67	13	1	1570
8	5	1	67	14	1	130
8	5	6	67	15	1	730
8	0	10	67	16	1	1200
8	0	13	67	17	1	1560
8	0	1	67	18	1	120
8	0	6	67	19	1	720
8	1	10	67	20	1	1202
8	1	13	67	21	1	1562
8	1	1	67	22	1	122
8	1	6	67	23	1	722
8	8	11	66	0	1	1336
8	8	12	66	1	1	1456
8	8	0	66	2	1	16
8	8	7	66	3	1	856
8	9	11	66	4	1	1338
8	9	12	66	5	1	1458
8	9	0	66	6	1	18
8	9	7	66	7	1	858
8	4	11	66	8	1	1328
8	4	12	66	9	1	1448
8	4	0	66	10	1	8
8	4	7	66	11	1	848
8	5	11	66	12	1	1330
8	5	12	66	13	1	1450
8	5	0	66	14	1	10
8	5	7	66	15	1	850
8	0	11	66	16	1	1320
8	0	12	66	17	1	1440
8	0	0	66	18	1	0
8	0	7	66	19	1	840
8	1	11	66	20	1	1322
8	1	12	66	21	1	1442
8	1	0	66	22	1	2
8	1	7	66	23	1	842
8	8	8	65	0	1	976
8	8	15	65	1	1	1816
8	8	3	65	2	1	376
8	8	4	65	3	1	496
8	9	8	65	4	1	978
8	9	15	65	5	1	1818
8	9	3	65	6	1	378
8	9	4	65	7	1	498
8	4	8	65	8	1	968
8	4	15	65	9	1	1808
8	4	3	65	10	1	368
8	4	4	65	11	1	488
8	5	8	65	12	1	970
8	5	15	65	13	1	1810
8	5	3	65	14	1	370
8	5	4	65	15	1	490
8	0	8	65	16	1	960
8	0	15	65	17	1	1800
8	0	3	65	18	1	360
8	0	4	65	19	1	480
8	1	8	65	20	1	962
8	1	15	65	21	1	1802
8	1	3	65	22	1	362
8	1	4	65	23	1	482
8	8	9	64	0	1	1096
8	8	14	64	1	1	1696
8	8	2	64	2	1	256
8	8	5	64	3	1	616
8	9	9	64	4	1	1098
8	9	14	64	5	1	1698
8	9	2	64	6	1	258
8	9	5	64	7	1	618
8	4	9	64	8	1	1088
8	4	14	64	9	1	1688
8	4	2	64	10	1	248
8	4	5	64	11	1	608
8	5	9	64	12	1	1090
8	5	14	64	13	1	1690
8	5	2	64	14	1	250
8	5	5	64	15	1	610
8	0	9	64	16	1	1080
8	0	14	64	17	1	1680
8	0	2	64	18	1	240
8	0	5	64	19	1	600
8	1	9	64	20	1	1082
8	1	14	64	21	1	1682
8	1	2	64	22	1	242
8	1	5	64	23	1	602
9	11	5	79	0	0	695
9	11	2	79	1	0	335
9	11	14	79	2	0	1775
9	11	9	79	3	0	1175
9	10	5	79	4	0	693
9	10	2	79	5	0	333
9	10	14	79	6	0	1773
9	10	9	79	7	0	1173
9	7	5	79	8	0	687
9	7	2	79	9	0	327
9	7	14	79	10	0	1767
9	7	9	79	11	0	1167
9	6	5	79	12	0	685
9	6	2	79	13	0	325
9	6	14	79	14	0	1765
9	6	9	79	15	0	1165
9	3	5	79	16	0	679
9	3	2	79	17	0	319
9	3	14	79	18	0	1759
9	3	9	79	19	0	1159
9	2	5	79	20	0	677
9	2	2	79	21	0	317
9	2	14	79	22	0	1757
9	2	9	79	23	0	1157
9	11	4	78	0	0	575
9	11	3	78	1	0	455
9	11	15	78	2	0	1895
9	11	8	78	3	0	1055
9	10	4	78	4	0	573
9	10	3	78	5	0	453
9	10	15	78	6	0	1893
9	10	8	78	7	0	1053
9	7	4	78	8	0	567
9	7	3	78	9	0	447
9	7	15	78	10	0	1887
9	7	8	78	11	0	1047
9	6	4	78	12	0	565
9	6	3	78	13	0	445
9	6	15	78	14	0	1885
9	6	8	78	15	0	1045
9	3	4	78	16	0	559
9	3	3	78	17	0	439
9	3	15	78	18	0	1879
9	3	8	78	19	0	1039
9	2	4	78	20	0	557
9	2	3	78	21	0	437
9	2	15	78	22	0	1877
9	2	8	78	23	0	1037
9	11	7	77	0	0	935
9	11	0	77	1	0	95
9	11	12	77	2	0	1535
9	11	11	77	3	0	1415
9	10	7	77	4	0	933
9	10	0	77	5	0	93
9	10	12	77	6	0	1533
9	10	11	77	7	0	1413
9	7	7	77	8	0	927
9	7	0	77	9	0	87
9	7	12	77	10	0	1527
9	7	11	77	11	0	1407
9	6	7	77	12	0	925
9	6	0	77	13	0	85
9	6	12	77	14	0	1525
9	6	11	77	15	0	1405
9	3	7	77	16	0	919
9	3	0	77	17	0	79
9	3	12	77	18	0	1519
9	3	11	77	19	0	1399
9	2	7	77	20	0	917
9	2	0	77	21	0	77
9	2	12	77	22	0	1517
9	2	11	77	23	0	1397
9	11	6	76	0	0	815
9	11	1	76	1	0	215
9	11	13	76	2	0	1655
9	11	10	76	3	0	1295
9	10	6	76	4	0	813
9	10	1	76	5	0	213
9	10	13	76	6	0	1653
9	10	10	76	7	0	1293
9	7	6	76	8	0	807
9	7	1	76	9	0	207
9	7	13	76	10	0	1647
9	7	10	76	11	0	1287
9	6	6	76	12	0	805
9	6	1	76	13	0	205
9	6	13	76	14	0	1645
9	6	10	76	15	0	1285
9	3	6	76	16	0	799
9	3	1	76	17	0	199
9	3	13	76	18	0	1639
9	3	10	76	19	0	1279
9	2	6	76	20	0	797
9	2	1	76	21	0	197
9	2	13	76	22	0	1637
9	2	10	76	23	0	1277
9	8	10	75	0	0	1289
9	8	13	75	1	0	1649
9	8	1	75	2	0	209
9	8	6	75	3	0	809
9	9	10	75	4	0	1291
9	9	13	75	5	0	1651
9	9	1	75	6	0	211
9	9	6	75	7	0	811
9	4	10	75	8	0	1281
9	4	13	75	9	0	1641
9	4	1	75	10	0	201
9	4	6	75	11	0	801
9	5	10	75	12	0	1283
9	5	13	75	13	0	1643
9	5	1	75	14	0	203
9	5	6	75	15	0	803
9	0	10	75	16	0	1273
9	0	13	75	17	0	1633
9	0	1	75	18	0	193
9	0	6	75	19	0	793
9	1	10	75	20	0	1275
9	1	13	75	21	0	1635
9	1	1	75	22	0	195
9	1	6	75	23	0	795
9	8	11	74	0	0	1409
9	8	12	74	1	0	1529
9	8	0	74	2	0	89
9	8	7	74	3	0	929
9	9	11	74	4	0	1411
9	9	12	74	5	0	1531
9	9	0	74	6	0	91
9	9	7	74	7	0	931
9	4	11	74	8	0	1401
9	4	12	74	9	0	1521
9	4	0	74	10	0	81
9	4	7	74	11	0	921
9	5	11	74	12	0	1403
9	5	12	74	13	0	1523
9	5	0	74	14	0	83
9	5	7	74	15	0	923
9	0	11	74	16	0	1393
9	0	12	74	17	0	1513
9	0	0	74	18	0	73
9	0	7	74	19	0	913
9	1	11	74	20	0	1395
9	1	12	74	21	0	1515
9	1	0	74	22	0	75
9	1	7	74	23	0	915
9	8	8	73	0	0	1049
9	8	15	73	1	0	1889
9	8	3	73	2	0	449
9	8	4	73	3	0	569
9	9	8	73	4	0	1051
9	9	15	73	5	0	1891
9	9	3	73	6	0	451
9	9	4	73	7	0	571
9	4	8	73	8	0	1041
9	4	15	73	9	0	1881
9	4	3	73	10	0	441
9	4	4	73	11	0	561
9	5	8	73	12	0	1043
9	5	15	73	13	0	1883
9	5	3	73	14	0	443
9	5	4	73	15	0	563
9	0	8	73	16	0	1033
9	0	15	73	17	0	1873
9	0	3	73	18	0	433
9	0	4	73	19	0	553
9	1	8	73	20	0	1035
9	1	15	73	21	0	1875
9	1	3	73	22	0	435
9	1	4	73	23	0	555
9	8	9	72	0	0	1169
9	8	14	72	1	0	1769
9	8	2	72	2	0	329
9	8	5	72	3	0	689
9	9	9	72	4	0	1171
9	9	14	72	5	0	1771
9	9	2	72	6	0	331
9	9	5	72	7	0	691
9	4	9	72	8	0	1161
9	4	14	72	9	0	1761
9	4	2	72	10	0	321
9	4	5	72	11	0	681
9	5	9	72	12	0	1163
9	5	14	72	13	0	1763
9	5	2	72	14	0	323
9	5	5	72	15	0	683
9	0	9	72	16	0	1153
9	0	14	72	17	0	1753
9	0	2	72	18	0	313
9	0	5	72	19	0	673
9	1	9	72	20	0	1155
9	1	14	72	21	0	1755
9	1	2	72	22	0	315
9	1	5	72	23	0	675
10	11	5	87	0	0	719
10	11	2	87	1	0	359
10	11	14	87	2	0	1799
10	11	9	87	3	0	1199
10	10	5	87	4	0	717
10	10	2	87	5	0	357
10	10	14	87	6	0	1797
10	10	9	87	7	0	1197
10	7	5	87	8	0	711
10	7	2	87	9	0	351
10	7	14	87	10	0	1791
10	7	9	87	11	0	1191
10	6	5	87	12	0	709
10	6	2	87	13	0	349
10	6	14	87	14	0	1789
10	6	9	87	15	0	1189
10	3	5	87	16	0	703
10	3	2	87	17	0	343
10	3	14	87	18	0	1783
10	3	9	87	19	0	1183
10	2	5	87	20	0	701
10	2	2	87	21	0	341
10	2	14	87	22	0	1781
10	2	9	87	23	0	1181
10	11	4	86	0	0	599
10	11	3	86	1	0	479
10	11	15	86	2	0	1919
10	11	8	86	3	0	1079
10	10	4	86	4	0	597
10	10	3	86	5	0	477
10	10	15	86	6	0	1917
10	10	8	86	7	0	1077
10	7	4	86	8	0	591
10	7	3	86	9	0	471
10	7	15	86	10	0	1911
10	7	8	86	11	0	1071
10	6	4	86	12	0	589
10	6	3	86	13	0	469
10	6	15	86	14	0	1909
10	6	8	86	15	0	1069
10	3	4	86	16	0	583
10	3	3	86	17	0	463
10	3	15	86	18	0	1903
10	3	8	86	19	0	1063
10	2	4	86	20	0	581
10	2	3	86	21	0	461
10	2	15	86	22	0	1901
10	2	8	86	23	0	1061
10	11	7	85	0	0	959
10	11	0	85	1	0	119
10	11	12	85	2	0	1559
10	11	11	85	3	0	1439
10	10	7	85	4	0	957
10	10	0	85	5	0	117
10	10	12	85	6	0	1557
10	10	11	85	7	0	1437
10	7	7	85	8	0	951
10	7	0	85	9	0	111
10	7	12	85	10	0	1551
10	7	11	85	11	0	1431
10	6	7	85	12	0	949
10	6	0	85	13	0	109
10	6	12	85	14	0	1549
10	6	11	85	15	0	1429
10	3	7	85	16	0	943
10	3	0	85	17	0	103
10	3	12	85	18	0	1543
10	3	11	85	19	0	1423
10	2	7	85	20	0	941
10	2	0	85	21	0	101
10	2	12	85	22	0	1541
10	2	11	85	23	0	1421
10	11	6	84	0	0	839
10	11	1	84	1	0	239
10	11	13	84	2	0	1679
10	11	10	84	3	0	1319
10	10	6	84	4	0	837
10	10	1	84	5	0	237
10	10	13	84	6	0	1677
10	10	10	84	7	0	1317
10	7	6	84	8	0	831
10	7	1	84	9	0	231
10	7	13	84	10	0	1671
10	7	10	84	11	0	1311
10	6	6	84	12	0	829
10	6	1	84	13	0	229
10	6	13	84	14	0	1669
10	6	10	84	15	0	1309
10	3	6	84	16	0	823
10	3	1	84	17	0	223
10	3	13	84	18	0	1663
10	3	10	84	19	0	1303
10	2	6	84	20	0	821
10	2	1	84	21	0	221
10	2	13	84	22	0	1661
10	2	10	84	23	0	1301
10	8	10	83	0	0	1313
10	8	13	83	1	0	1673
10	8	1	83	2	0	233
10	8	6	83	3	0	833
10	9	10	83	4	0	1315
10	9	13	83	5	0	1675
10	9	1	83	6	0	235
10	9	6	83	7	0	835
10	4	10	83	8	0	1305
10	4	13	83	9	0	1665
10	4	1	83	10	0	225
10	4	6	83	11	0	825
10	5	10	83	12	0	1307
10	5	13	83	13	0	1667
10	5	1	83	14	0	227
10	5	6	83	15	0	827
10	0	10	83	16	0	1297
10	0	13	83	17	0	1657
10	0	1	83	18	0	217
10	0	6	83	19	0	817
10	1	10	83	20	0	1299
10	1	13	83	21	0	1659
10	1	1	83	22	0	219
10	1	6	83	23	0	819
10	8	11	82	0	0	1433
10	8	12	82	1	0	1553
10	8	0	82	2	0	113
10	8	7	82	3	0	953
10	9	11	82	4	0	1435
10	9	12	82	5	0	1555
10	9	0	82	6	0	115
10	9	7	82	7	0	955
10	4	11	82	8	0	1425
10	4	12	82	9	0	1545
10	4	0	82	10	0	105
10	4	7	82	11	0	945
10	5	11	82	12	0	1427
10	5	12	82	13	0	1547
10	5	0	82	14	0	107
10	5	7	82	15	0	947
10	0	11	82	16	0	1417
10	0	12	82	17	0	1537
10	0	0	82	18	0	97
10	0	7	82	19	0	937
10	1	11	82	20	0	1419
10	1	12	82	21	0	1539
10	1	0	82	22	0	99
10	1	7	82	23	0	939
10	8	8	81	0	0	1073
10	8	15	81	1	0	1913
10	8	3	81	2	0	473
10	8	4	81	3	0	593
10	9	8	81	4	0	1075
10	9	15	81	5	0	1915
10	9	3	81	6	0	475
10	9	4	81	7	0	595
10	4	8	81	8	0	1065
10	4	15	81	9	0	1905
10	4	3	81	10	0	465
10	4	4	81	11	0	585
10	5	8	81	12	0	1067
10	5	15	81	13	0	1907
10	5	3	81	14	0	467
10	5	4	81	15	0	587
10	0	8	81	16	0	1057
10	0	15	81	17	0	1897
10	0	3	81	18	0	457
10	0	4	81	19	0	577
10	1	8	81	20	0	1059
10	1	15	81	21	0	1899
10	1	3	81	22	0	459
10	1	4	81	23	0	579
10	8	9	80	0	0	1193
10	8	14	80	1	0	1793
10	8	2	80	2	0	353
10	8	5	80	3	0	713
10	9	9	80	4	0	1195
10	9	14	80	5	0	1795
10	9	2	80	6	0	355
10	9	5	80	7	0	715
10	4	9	80	8	0	1185
10	4	14	80	9	0	1785
10	4	2	80	10	0	345
10	4	5	80	11	0	705
10	5	9	80	12	0	1187
10	5	14	80	13	0	1787
10	5	2	80	14	0	347
10	5	5	80	15	0	707
10	0	9	80	16	0	1177
10	0	14	80	17	0	1777
10	0	2	80	18	0	337
10	0	5	80	19	0	697
10	1	9	80	20	0	1179
10	1	14	80	21	0	1779
10	1	2	80	22	0	339
10	1	5	80	23	0	699
11	11	5	95	0	1	646
11	11	2	95	1	1	286
11	11	14	95	2	1	1726
11	11	9	95	3	1	1126
11	10	5	95	4	1	644
11	10	2	95	5	1	284
11	10	14	95	6	1	1724
11	10	9	95	7	1	1124
11	7	5	95	8	1	638
11	7	2	95	9	1	278
11	7	14	95	10	1	1718
11	7	9	95	11	1	1118
11	6	5	95	12	1	636
11	6	2	95	13	1	276
11	6	14	95	14	1	1716
11	6	9	95	15	1	1116
11	3	5	95	16	1	630
11	3	2	95	17	1	270
11	3	14	95	18	1	1710
11	3	9	95	19	1	1110
11	2	5	95	20	1	628
11	2	2	95	21	1	268
11	2	14	95	22	1	1708
11	2	9	95	23	1	1108
11	11	4	94	0	1	526
11	11	3	94	1	1	406
11	11	15	94	2	1	1846
11	11	8	94	3	1	1006
11	10	4	94	4	1	524
11	10	3	94	5	1	404
11	10	15	94	6	1	1844
11	10	8	94	7	1	1004
11	7	4	94	8	1	518
11	7	3	94	9	1	398
11	7	15	94	10	1	1838
11	7	8	94	11	1	998
11	6	4	94	12	1	516
11	6	3	94	13	1	396
11	6	15	94	14	1	1836
11	6	8	94	15	1	996
11	3	4	94	16	1	510
11	3	3	94	17	1	390
11	3	15	94	18	1	1830
11	3	8	94	19	1	990
11	2	4	94	20	1	508
11	2	3	94	21	1	388
11	2	15	94	22	1	1828
11	2	8	94	23	1	988
11	11	7	93	0	1	886
11	11	0	93	1	1	46
11	11	12	93	2	1	1486
11	11	11	93	3	1	1366
11	10	7	93	4	1	884
11	10	0	93	5	1	44
11	10	12	93	6	1	1484
11	10	11	93	7	1	1364
11	7	7	93	8	1	878
11	7	0	93	9	1	38
11	7	12	93	10	1	1478
11	7	11	93	11	1	1358
11	6	7	93	12	1	876
11	6	0	93	13	1	36
11	6	12	93	14	1	1476
11	6	11	93	15	1	1356
11	3	7	93	16	1	870
11	3	0	93	17	1	30
11	3	12	93	18	1	1470
11	3	11	93	19	1	1350
11	2	7	93	20	1	868
11	2	0	93	21	1	28
11	2	12	93	22	1	1468
11	2	11	93	23	1	1348
11	11	6	92	0	1	766
11	11	1	92	1	1	166
11	11	13	92	2	1	1606
11	11	10	92	3	1	1246
11	10	6	92	4	1	764
11	10	1	92	5	1	164
11	10	13	92	6	1	1604
11	10	10	92	7	1	1244
11	7	6	92	8	1	758
11	7	1	92	9	1	158
11	7	13	92	10	1	1598
11	7	10	92	11	1	1238
11	6	6	92	12	1	756
11	6	1	92	13	1	156
11	6	13	92	14	1	1596
11	6	10	92	15	1	1236
11	3	6	92	16	1	750
11	3	1	92	17	1	150
11	3	13	92	18	1	1590
11	3	10	92	19	1	1230
11	2	6	92	20	1	748
11	2	1	92	21	1	148
11	2	13	92	22	1	1588
11	2	10	92	23	1	1228
11	8	10	91	0	1	1240
11	8	13	91	1	1	1600
11	8	1	91	2	1	160
11	8	6	91	3	1	760
11	9	10	91	4	1	1242
11	9	13	91	5	1	1602
11	9	1	91	6	1	162
11	9	6	91	7	1	762
11	4	10	91	8	1	1232
11	4	13	91	9	1	1592
11	4	1	91	10	1	152
11	4	6	91	11	1	752
11	5	10	91	12	1	1234
11	5	13	91	13	1	1594
11	5	1	91	14	1	154
11	5	6	91	15	1	754
11	0	10	91	16	1	1224
11	0	13	91	17	1	1584
11	0	1	91	18	1	144
11	0	6	91	19	1	744
11	1	10	91	20	1	1226
11	1	13	91	21	1	1586
11	1	1	91	22	1	146
11	1	6	91	23	1	746
11	8	11	90	0	1	1360
11	8	12	90	1	1	1480
11	8	0	90	2	1	40
11	8	7	90	3	1	880
11	9	11	90	4	1	1362
11	9	12	90	5	1	1482
11	9	0	90	6	1	42
11	9	7	90	7	1	882
11	4	11	90	8	1	1352
11	4	12	90	9	1	1472
11	4	0	90	10	1	32
11	4	7	90	11	1	872
11	5	11	90	12	1	1354
11	5	12	90	13	1	1474
11	5	0	90	14	1	34
11	5	7	90	15	1	874
11	0	11	90	16	1	1344
11	0	12	90	17	1	1464
11	0	0	90	18	1	24
11	0	7	90	19	1	864
11	1	11	90	20	1	1346
11	1	12	90	21	1	1466
11	1	0	90	22	1	26
11	1	7	90	23	1	866
11	8	8	89	0	1	1000
11	8	15	89	1	1	1840
11	8	3	89	2	1	400
11	8	4	89	3	1	520
11	9	8	89	4	1	1002
11	9	15	89	5	1	1842
11	9	3	89	6	1	402
11	9	4	89	7	1	522
11	4	8	89	8	1	992
11	4	15	89	9	1	1832
11	4	3	89	10	1	392
11	4	4	89	11	1	512
11	5	8	89	12	1	994
11	5	15	89	13	1	1834
11	5	3	89	14	1	394
11	5	4	89	15	1	514
11	0	8	89	16	1	984
11	0	15	89	17	1	1824
11	0	3	89	18	1	384
11	0	4	89	19	1	504
11	1	8	89	20	1	986
11	1	15	89	21	1	1826
11	1	3	89	22	1	386
11	1	4	89	23	1	506
11	8	9	88	0	1	1120
11	8	14	88	1	1	1720
11	8	2	88	2	1	280
11	8	5	88	3	1	640
11	9	9	88	4	1	1122
11	9	14	88	5	1	1722
11	9	2	88	6	1	282
11	9	5	88	7	1	642
11	4	9	88	8	1	1112
11	4	14	88	9	1	1712
11	4	2	88	10	1	272
11	4	5	88	11	1	632
11	5	9	88	12	1	1114
11	5	14	88	13	1	1714
11	5	2	88	14	1	274
11	5	5	88	15	1	634
11	0	9	88	16	1	1104
11	0	14	88	17	1	1704
11	0	2	88	18	1	264
11	0	5	88	19	1	624
11	1	9	88	20	1	1106
11	1	14	88	21	1	1706
11	1	2	88	22	1	266
11	1	5	88	23	1	626
12	11	5	103	0	1	670
12	11	2	103	1	1	310
12	11	14	103	2	1	1750
12	11	9	103	3	1	1150
12	10	5	103	4	1	668
12	10	2	103	5	1	308
12	10	14	103	6	1	1748
12	10	9	103	7	1	1148
12	7	5	103	8	1	662
12	7	2	103	9	1	302
12	7	14	103	10	1	1742
12	7	9	103	11	1	1142
12	6	5	103	12	1	660
12	6	2	103	13	1	300
12	6	14	103	14	1	1740
12	6	9	103	15	1	1140
12	3	5	103	16	1	654
12	3	2	103	17	1	294
12	3	14	103	18	1	1734
12	3	9	103	19	1	1134
12	2	5	103	20	1	652
12	2	2	103	21	1	292
12	2	14	103	22	1	1732
12	2	9	103	23	1	1132
12	11	4	102	0	1	550
12	11	3	102	1	1	430
12	11	15	102	2	1	1870
12	11	8	102	3	1	1030
12	10	4	102	4	1	548
12	10	3	102	5	1	428
12	10	15	102	6	1	1868
12	10	8	102	7	1	1028
12	7	4	102	8	1	542
12	7	3	102	9	1	422
12	7	15	102	10	1	1862
12	7	8	102	11	1	1022
12	6	4	102	12	1	540
12	6	3	102	13	1	420
12	6	15	102	14	1	1860
12	6	8	102	15	1	1020
12	3	4	102	16	1	534
12	3	3	102	17	1	414
12	3	15	102	18	1	1854
12	3	8	102	19	1	1014
12	2	4	102	20	1	532
12	2	3	102	21	1	412
12	2	15	102	22	1	1852
12	2	8	102	23	1	1012
12	11	7	101	0	1	910
12	11	0	101	1	1	70
12	11	12	101	2	1	1510
12	11	11	101	3	1	1390
12	10	7	101	4	1	908
12	10	0	101	5	1	68
12	10	12	101	6	1	1508
12	10	11	101	7	1	1388
12	7	7	101	8	1	902
12	7	0	101	9	1	62
12	7	12	101	10	1	1502
12	7	11	101	11	1	1382
12	6	7	101	12	1	900
12	6	0	101	13	1	60
12	6	12	101	14	1	1500
12	6	11	101	15	1	1380
12	3	7	101	16	1	894
12	3	0	101	17	1	54
12	3	12	101	18	1	1494
12	3	11	101	19	1	1374
12	2	7	101	20	1	892
12	2	0	101	21	1	52
12	2	12	101	22	1	1492
12	2	11	101	23	1	1372
12	11	6	100	0	1	790
12	11	1	100	1	1	190
12	11	13	100	2	1	1630
12	11	10	100	3	1	1270
12	10	6	100	4	1	788
12	10	1	100	5	1	188
12	10	13	100	6	1	1628
12	10	10	100	7	1	1268
12	7	6	100	8	1	782
12	7	1	100	9	1	182
12	7	13	100	10	1	1622
12	7	10	100	11	1	1262
12	6	6	100	12	1	780
12	6	1	100	13	1	180
12	6	13	100	14	1	1620
12	6	10	100	15	1	1260
12	3	6	100	16	1	774
12	3	1	100	17	1	174
12	3	13	100	18	1	1614
12	3	10	100	19	1	1254
12	2	6	100	20	1	772
12	2	1	100	21	1	172
12	2	13	100	22	1	1612
12	2	10	100	23	1	1252
12	8	10	99	0	1	1264
12	8	13	99	1	1	1624
12	8	1	99	2	1	184
12	8	6	99	3	1	784
12	9	10	99	4	1	1266
12	9	13	99	5	1	1626
12	9	1	99	6	1	186
12	9	6	99	7	1	786
12	4	10	99	8	1	1256
12	4	13	99	9	1	1616
12	4	1	99	10	1	176
12	4	6	99	11	1	776
12	5	10	99	12	1	1258
12	5	13	99	13	1	1618
12	5	1	99	14	1	178
12	5	6	99	15	1	778
12	0	10	99	16	1	1248
12	0	13	99	17	1	1608
12	0	1	99	18	1	168
12	0	6	99	19	1	768
12	1	10	99	20	1	1250
12	1	13	99	21	1	1610
12	1	1	99	22	1	170
12	1	6	99	23	1	770
12	8	11	98	0	1	1384
12	8	12	98	1	1	1504
12	8	0	98	2	1	64
12	8	7	98	3	1	904
12	9	11	98	4	1	1386
12	9	12	98	5	1	1506
12	9	0	98	6	1	66
12	9	7	98	7	1	906
12	4	11	98	8	1	1376
12	4	12	98	9	1	1496
12	4	0	98	10	1	56
12	4	7	98	11	1	896
12	5	11	98	12	1	1378
12	5	12	98	13	1	1498
12	5	0	98	14	1	58
12	5	7	98	15	1	898
12	0	11	98	16	1	1368
12	0	12	98	17	1	1488
12	0	0	98	18	1	48
12	0	7	98	19	1	888
12	1	11	98	20	1	1370
12	1	12	98	21	1	1490
12	1	0	98	22	1	50
12	1	7	98	23	1	890
12	8	8	97	0	1	1024
12	8	15	97	1	1	1864
12	8	3	97	2	1	424
12	8	4	97	3	1	544
12	9	8	97	4	1	1026
12	9	15	97	5	1	1866
12	9	3	97	6	1	426
12	9	4	97	7	1	546
12	4	8	97	8	1	1016
12	4	15	97	9	1	1856
12	4	3	97	10	1	416
12	4	4	97	11	1	536
12	5	8	97	12	1	1018
12	5	15	97	13	1	1858
12	5	3	97	14	1	418
12	5	4	97	15	1	538
12	0	8	97	16	1	1008
12	0	15	97	17	1	1848
12	0	3	97	18	1	408
12	0	4	97	19	1	528
12	1	8	97	20	1	1010
12	1	15	97	21	1	1850
12	1	3	97	22	1	410
12	1	4	97	23	1	530
12	8	9	96	0	1	1144
12	8	14	96	1	1	1744
12	8	2	96	2	1	304
12	8	5	96	3	1	664
12	9	9	96	4	1	1146
12	9	14	96	5	1	1746
12	9	2	96	6	1	306
12	9	5	96	7	1	666
12	4	9	96	8	1	1136
12	4	14	96	9	1	1736
12	4	2	96	10	1	296
12	4	5	96	11	1	656
12	5	9	96	12	1	1138
12	5	14	96	13	1	1738
12	5	2	96	14	1	298
12	5	5	96	15	1	658
12	0	9	96	16	1	1128
12	0	14	96	17	1	1728
12	0	2	96	18	1	288
12	0	5	96	19	1	648
12	1	9	96	20	1	1130
12	1	14	96	21	1	1730
12	1	2	96	22	1	290
12	1	5	96	23	1	650
13	11	5	111	0	1	718
13	11	2	111	1	1	358
13	11	14	111	2	1	1798
13	11	9	111	3	1	1198
13	10	5	111	4	1	716
13	10	2	111	5	1	356
13	10	14	111	6	1	1796
13	10	9	111	7	1	1196
13	7	5	111	8	1	710
13	7	2	111	9	1	350
13	7	14	111	10	1	1790
13	7	9	111	11	1	1190
13	6	5	111	12	1	708
13	6	2	111	13	1	348
13	6	14	111	14	1	1788
13	6	9	111	15	1	1188
13	3	5	111	16	1	702
13	3	2	111	17	1	342
13	3	14	111	18	1	1782
13	3	9	111	19	1	1182
13	2	5	111	20	1	700
13	2	2	111	21	1	340
13	2	14	111	22	1	1780
13	2	9	111	23	1	1180
13	11	4	110	0	1	598
13	11	3	110	1	1	478
13	11	15	110	2	1	1918
13	11	8	110	3	1	1078
13	10	4	110	4	1	596
13	10	3	110	5	1	476
13	10	15	110	6	1	1916
13	10	8	110	7	1	1076
13	7	4	110	8	1	590
13	7	3	110	9	1	470
13	7	15	110	10	1	1910
13	7	8	110	11	1	1070
13	6	4	110	12	1	588
13	6	3	110	13	1	468
13	6	15	110	14	1	1908
13	6	8	110	15	1	1068
13	3	4	110	16	1	582
13	3	3	110	17	1	462
13	3	15	110	18	1	1902
13	3	8	110	19	1	1062
13	2	4	110	20	1	580
13	2	3	110	21	1	460
13	2	15	110	22	1	1900
13	2	8	110	23	1	1060
13	11	7	109	0	1	958
13	11	0	109	1	1	118
13	11	12	109	2	1	1558
13	11	11	109	3	1	1438
13	10	7	109	4	1	956
13	10	0	109	5	1	116
13	10	12	109	6	1	1556
13	10	11	109	7	1	1436
13	7	7	109	8	1	950
13	7	0	109	9	1	110
13	7	12	109	10	1	1550
13	7	11	109	11	1	1430
13	6	7	109	12	1	948
13	6	0	109	13	1	108
13	6	12	109	14	1	1548
13	6	11	109	15	1	1428
13	3	7	109	16	1	942
13	3	0	109	17	1	102
13	3	12	109	18	1	1542
13	3	11	109	19	1	1422
13	2	7	109	20	1	940
13	2	0	109	21	1	100
13	2	12	109	22	1	1540
13	2	11	109	23	1	1420
13	11	6	108	0	1	838
13	11	1	108	1	1	238
13	11	13	108	2	1	1678
13	11	10	108	3	1	1318
13	10	6	108	4	1	836
13	10	1	108	5	1	236
13	10	13	108	6	1	1676
13	10	10	108	7	1	1316
13	7	6	108	8	1	830
13	7	1	108	9	1	230
13	7	13	108	10	1	1670
13	7	10	108	11	1	1310
13	6	6	108	12	1	828
13	6	1	108	13	1	228
13	6	13	108	14	1	1668
13	6	10	108	15	1	1308
13	3	6	108	16	1	822
13	3	1	108	17	1	222
13	3	13	108	18	1	1662
13	3	10	108	19	1	1302
13	2	6	108	20	1	820
13	2	1	108	21	1	220
13	2	13	108	22	1	1660
13	2	10	108	23	1	1300
13	8	10	107	0	1	1312
13	8	13	107	1	1	1672
13	8	1	107	2	1	232
13	8	6	107	3	1	832
13	9	10	107	4	1	1314
13	9	13	107	5	1	1674
13	9	1	107	6	1	234
13	9	6	107	7	1	834
13	4	10	107	8	1	1304
13	4	13	107	9	1	1664
13	4	1	107	10	1	224
13	4	6	107	11	1	824
13	5	10	107	12	1	1306
13	5	13	107	13	1	1666
13	5	1	107	14	1	226
13	5	6	107	15	1	826
13	0	10	107	16	1	1296
13	0	13	107	17	1	1656
13	0	1	107	18	1	216
13	0	6	107	19	1	816
13	1	10	107	20	1	1298
13	1	13	107	21	1	1658
13	1	1	107	22	1	218
13	1	6	107	23	1	818
13	8	11	106	0	1	1432
13	8	12	106	1	1	1552
13	8	0	106	2	1	112
13	8	7	106	3	1	952
13	9	11	106	4	1	1434
13	9	12	106	5	1	1554
13	9	0	106	6	1	114
13	9	7	106	7	1	954
13	4	11	106	8	1	1424
13	4	12	106	9	1	1544
13	4	0	106	10	1	104
13	4	7	106	11	1	944
13	5	11	106	12	1	1426
13	5	12	106	13	1	1546
13	5	0	106	14	1	106
13	5	7	106	15	1	946
13	0	11	106	16	1	1416
13	0	12	106	17	1	1536
13	0	0	106	18	1	96
13	0	7	106	19	1	936
13	1	11	106	20	1	1418
13	1	12	106	21	1	1538
13	1	0	106	22	1	98
13	1	7	106	23	1	938
13	8	8	105	0	1	1072
13	8	15	105	1	1	1912
13	8	3	105	2	1	472
13	8	4	105	3	1	592
13	9	8	105	4	1	1074
13	9	15	105	5	1	1914
13	9	3	105	6	1	474
13	9	4	105	7	1	594
13	4	8	105	8	1	1064
13	4	15	105	9	1	1904
13	4	3	105	10	1	464
13	4	4	105	11	1	584
13	5	8	105	12	1	1066
13	5	15	105	13	1	1906
13	5	3	105	14	1	466
13	5	4	105	15	1	586
13	0	8	105	16	1	1056
13	0	15	105	17	1	1896
13	0	3	105	18	1	456
13	0	4	105	19	1	576
13	1	8	105	20	1	1058
13	1	15	105	21	1	1898
13	1	3	105	22	1	458
13	1	4	105	23	1	578
13	8	9	104	0	1	1192
13	8	14	104	1	1	1792
13	8	2	104	2	1	352
13	8	5	104	3	1	712
13	9	9	104	4	1	1194
13	9	14	104	5	1	1794
13	9	2	104	6	1	354
13	9	5	104	7	1	714
13	4	9	104	8	1	1184
13	4	14	104	9	1	1784
13	4	2	104	10	1	344
13	4	5	104	11	1	704
13	5	9	104	12	1	1186
13	5	14	104	13	1	1786
13	5	2	104	14	1	346
13	5	5	104	15	1	706
13	0	9	104	16	1	1176
13	0	14	104	17	1	1776
13	0	2	104	18	1	336
13	0	5	104	19	1	696
13	1	9	104	20	1	1178
13	1	14	104	21	1	1778
13	1	2	104	22	1	338
13	1	5	104	23	1	698
14	11	5	119	0	1	623
14	11	2	119	1	1	263
14	11	14	119	2	1	1703
14	11	9	119	3	1	1103
14	10	5	119	4	1	621
14	10	2	119	5	1	261
14	10	14	119	6	1	1701
14	10	9	119	7	1	1101
14	7	5	119	8	1	615
14	7	2	119	9	1	255
14	7	14	119	10	1	1695
14	7	9	119	11	1	1095
14	6	5	119	12	1	613
14	6	2	119	13	1	253
14	6	14	119	14	1	1693
14	6	9	119	15	1	1093
14	3	5	119	16	1	607
14	3	2	119	17	1	247
14	3	14	119	18	1	1687
14	3	9	119	19	1	1087
14	2	5	119	20	1	605
14	2	2	119	21	1	245
14	2	14	119	22	1	1685
14	2	9	119	23	1	1085
14	11	4	118	0	1	503
14	11	3	118	1	1	383
14	11	15	118	2	1	1823
14	11	8	118	3	1	983
14	10	4	118	4	1	501
14	10	3	118	5	1	381
14	10	15	118	6	1	1821
14	10	8	118	7	1	981
14	7	4	118	8	1	495
14	7	3	118	9	1	375
14	7	15	118	10	1	1815
14	7	8	118	11	1	975
14	6	4	118	12	1	493
14	6	3	118	13	1	373
14	6	15	118	14	1	1813
14	6	8	118	15	1	973
14	3	4	118	16	1	487
14	3	3	118	17	1	367
14	3	15	118	18	1	1807
14	3	8	118	19	1	967
14	2	4	118	20	1	485
14	2	3	118	21	1	365
14	2	15	118	22	1	1805
14	2	8	118	23	1	965
14	11	7	117	0	1	863
14	11	0	117	1	1	23
14	11	12	117	2	1	1463
14	11	11	117	3	1	1343
14	10	7	117	4	1	861
14	10	0	117	5	1	21
14	10	12	117	6	1	1461
14	10	11	117	7	1	1341
14	7	7	117	8	1	855
14	7	0	117	9	1	15
14	7	12	117	10	1	1455
14	7	11	117	11	1	1335
14	6	7	117	12	1	853
14	6	0	117	13	1	13
14	6	12	117	14	1	1453
14	6	11	117	15	1	1333
14	3	7	117	16	1	847
14	3	0	117	17	1	7
14	3	12	117	18	1	1447
14	3	11	117	19	1	1327
14	2	7	117	20	1	845
14	2	0	117	21	1	5
14	2	12	117	22	1	1445
14	2	11	117	23	1	1325
14	11	6	116	0	1	743
14	11	1	116	1	1	143
14	11	13	116	2	1	1583
14	11	10	116	3	1	1223
14	10	6	116	4	1	741
14	10	1	116	5	1	141
14	10	13	116	6	1	1581
14	10	10	116	7	1	1221
14	7	6	116	8	1	735
14	7	1	116	9	1	135
14	7	13	116	10	1	1575
14	7	10	116	11	1	1215
14	6	6	116	12	1	733
14	6	1	116	13	1	133
14	6	13	116	14	1	1573
14	6	10	116	15	1	1213
14	3	6	116	16	1	727
14	3	1	116	17	1	127
14	3	13	116	18	1	1567
14	3	10	116	19	1	1207
14	2	6	116	20	1	725
14	2	1	116	21	1	125
14	2	13	116	22	1	1565
14	2	10	116	23	1	1205
14	8	10	115	0	1	1217
14	8	13	115	1	1	1577
14	8	1	115	2	1	137
14	8	6	115	3	1	737
14	9	10	115	4	1	1219
14	9	13	115	5	1	1579
14	9	1	115	6	1	139
14	9	6	115	7	1	739
14	4	10	115	8	1	1209
14	4	13	115	9	1	1569
14	4	1	115	10	1	129
14	4	6	115	11	1	729
14	5	10	115	12	1	1211
14	5	13	115	13	1	1571
14	5	1	115	14	1	131
14	5	6	115	15	1	731
14	0	10	115	16	1	1201
14	0	13	115	17	1	1561
14	0	1	115	18	1	121
14	0	6	115	19	1	721
14	1	10	115	20	1	1203
14	1	13	115	21	1	1563
14	1	1	115	22	1	123
14	1	6	115	23	1	723
14	8	11	114	0	1	1337
14	8	12	114	1	1	1457
14	8	0	114	2	1	17
14	8	7	114	3	1	857
14	9	11	114	4	1	1339
14	9	12	114	5	1	1459
14	9	0	114	6	1	19
14	9	7	114	7	1	859
14	4	11	114	8	1	1329
14	4	12	114	9	1	1449
14	4	0	114	10	1	9
14	4	7	114	11	1	849
14	5	11	114	12	1	1331
14	5	12	114	13	1	1451
14	5	0	114	14	1	11
14	5	7	114	15	1	851
14	0	11	114	16	1	1321
14	0	12	114	17	1	1441
14	0	0	114	18	1	1
14	0	7	114	19	1	841
14	1	11	114	20	1	1323
14	1	12	114	21	1	1443
14	1	0	114	22	1	3
14	1	7	114	23	1	843
14	8	8	113	0	1	977
14	8	15	113	1	1	1817
14	8	3	113	2	1	377
14	8	4	113	3	1	497
14	9	8	113	4	1	979
14	9	15	113	5	1	1819
14	9	3	113	6	1	379
14	9	4	113	7	1	499
14	4	8	113	8	1	969
14	4	15	113	9	1	1809
14	4	3	113	10	1	369
14	4	4	113	11	1	489
14	5	8	113	12	1	971
14	5	15	113	13	1	1811
14	5	3	113	14	1	371
14	5	4	113	15	1	491
14	0	8	113	16	1	961
14	0	15	113	17	1	1801
14	0	3	113	18	1	361
14	0	4	113	19	1	481
14	1	8	113	20	1	963
14	1	15	113	21	1	1803
14	1	3	113	22	1	363
14	1	4	113	23	1	483
14	8	9	112	0	1	1097
14	8	14	112	1	1	1697
14	8	2	112	2	1	257
14	8	5	112	3	1	617
14	9	9	112	4	1	1099
14	9	14	112	5	1	1699
14	9	2	112	6	1	259
14	9	5	112	7	1	619
14	4	9	112	8	1	1089
14	4	14	112	9	1	1689
14	4	2	112	10	1	249
14	4	5	112	11	1	609
14	5	9	112	12	1	1091
14	5	14	112	13	1	1691
14	5	2	112	14	1	251
14	5	5	112	15	1	611
14	0	9	112	16	1	1081
14	0	14	112	17	1	1681
14	0	2	112	18	1	241
14	0	5	112	19	1	601
14	1	9	112	20	1	1083
14	1	14	112	21	1	1683
14	1	2	112	22	1	243
14	1	5	112	23	1	603
15	11	5	127	0	1	694
15	11	2	127	1	1	334
15	11	14	127	2	1	1774
15	11	9	127	3	1	1174
15	10	5	127	4	1	692
15	10	2	127	5	1	332
15	10	14	127	6	1	1772
15	10	9	127	7	1	1172
15	7	5	127	8	1	686
15	7	2	127	9	1	326
15	7	14	127	10	1	1766
15	7	9	127	11	1	1166
15	6	5	127	12	1	684
15	6	2	127	13	1	324
15	6	14	127	14	1	1764
15	6	9	127	15	1	1164
15	3	5	127	16	1	678
15	3	2	127	17	1	318
15	3	14	127	18	1	1758
15	3	9	127	19	1	1158
15	2	5	127	20	1	676
15	2	2	127	21	1	316
15	2	14	127	22	1	1756
15	2	9	127	23	1	1156
15	11	4	126	0	1	574
15	11	3	126	1	1	454
15	11	15	126	2	1	1894
15	11	8	126	3	1	1054
15	10	4	126	4	1	572
15	10	3	126	5	1	452
15	10	15	126	6	1	1892
15	10	8	126	7	1	1052
15	7	4	126	8	1	566
15	7	3	126	9	1	446
15	7	15	126	10	1	1886
15	7	8	126	11	1	1046
15	6	4	126	12	1	564
15	6	3	126	13	1	444
15	6	15	126	14	1	1884
15	6	8	126	15	1	1044
15	3	4	126	16	1	558
15	3	3	126	17	1	438
15	3	15	126	18	1	1878
15	3	8	126	19	1	1038
15	2	4	126	20	1	556
15	2	3	126	21	1	436
15	2	15	126	22	1	1876
15	2	8	126	23	1	1036
15	11	7	125	0	1	934
15	11	0	125	1	1	94
15	11	12	125	2	1	1534
15	11	11	125	3	1	1414
15	10	7	125	4	1	932
15	10	0	125	5	1	92
15	10	12	125	6	1	1532
15	10	11	125	7	1	1412
15	7	7	125	8	1	926
15	7	0	125	9	1	86
15	7	12	125	10	1	1526
15	7	11	125	11	1	1406
15	6	7	125	12	1	924
15	6	0	125	13	1	84
15	6	12	125	14	1	1524
15	6	11	125	15	1	1404
15	3	7	125	16	1	918
15	3	0	125	17	1	78
15	3	12	125	18	1	1518
15	3	11	125	19	1	1398
15	2	7	125	20	1	916
15	2	0	125	21	1	76
15	2	12	125	22	1	1516
15	2	11	125	23	1	1396
15	11	6	124	0	1	814
15	11	1	124	1	1	214
15	11	13	124	2	1	1654
15	11	10	124	3	1	1294
15	10	6	124	4	1	812
15	10	1	124	5	1	212
15	10	13	124	6	1	1652
15	10	10	124	7	1	1292
15	7	6	124	8	1	806
15	7	1	124	9	1	206
15	7	13	124	10	1	1646
15	7	10	124	11	1	1286
15	6	6	124	12	1	804
15	6	1	124	13	1	204
15	6	13	124	14	1	1644
15	6	10	124	15	1	1284
15	3	6	124	16	1	798
15	3	1	124	17	1	198
15	3	13	124	18	1	1638
15	3	10	124	19	1	1278
15	2	6	124	20	1	796
15	2	1	124	21	1	196
15	2	13	124	22	1	1636
15	2	10	124	23	1	1276
15	8	10	123	0	1	1288
15	8	13	123	1	1	1648
15	8	1	123	2	1	208
15	8	6	123	3	1	808
15	9	10	123	4	1	1290
15	9	13	123	5	1	1650
15	9	1	123	6	1	210
15	9	6	123	7	1	810
15	4	10	123	8	1	1280
15	4	13	123	9	1	1640
15	4	1	123	10	1	200
15	4	6	123	11	1	800
15	5	10	123	12	1	1282
15	5	13	123	13	1	1642
15	5	1	123	14	1	202
15	5	6	123	15	1	802
15	0	10	123	16	1	1272
15	0	13	123	17	1	1632
15	0	1	123	18	1	192
15	0	6	123	19	1	792
15	1	10	123	20	1	1274
15	1	13	123	21	1	1634
15	1	1	123	22	1	194
15	1	6	123	23	1	794
15	8	11	122	0	1	1408
15	8	12	122	1	1	1528
15	8	0	122	2	1	88
15	8	7	122	3	1	928
15	9	11	122	4	1	1410
15	9	12	122	5	1	1530
15	9	0	122	6	1	90
15	9	7	122	7	1	930
15	4	11	122	8	1	1400
15	4	12	122	9	1	1520
15	4	0	122	10	1	80
15	4	7	122	11	1	920
15	5	11	122	12	1	1402
15	5	12	122	13	1	1522
15	5	0	122	14	1	82
15	5	7	122	15	1	922
15	0	11	122	16	1	1392
15	0	12	122	17	1	1512
15	0	0	122	18	1	72
15	0	7	122	19	1	912
15	1	11	122	20	1	1394
15	1	12	122	21	1	1514
15	1	0	122	22	1	74
15	1	7	122	23	1	914
15	8	8	121	0	1	1048
15	8	15	121	1	1	1888
15	8	3	121	2	1	448
15	8	4	121	3	1	568
15	9	8	121	4	1	1050
15	9	15	121	5	1	1890
15	9	3	121	6	1	450
15	9	4	121	7	1	570
15	4	8	121	8	1	1040
15	4	15	121	9	1	1880
15	4	3	121	10	1	440
15	4	4	121	11	1	560
15	5	8	121	12	1	1042
15	5	15	121	13	1	1882
15	5	3	121	14	1	442
15	5	4	121	15	1	562
15	0	8	121	16	1	1032
15	0	15	121	17	1	1872
15	0	3	121	18	1	432
15	0	4	121	19	1	552
15	1	8	121	20	1	1034
15	1	15	121	21	1	1874
15	1	3	121	22	1	434
15	1	4	121	23	1	554
15	8	9	120	0	1	1168
15	8	14	120	1	1	1768
15	8	2	120	2	1	328
15	8	5	120	3	1	688
15	9	9	120	4	1	1170
15	9	14	120	5	1	1770
15	9	2	120	6	1	330
15	9	5	120	7	1	690
15	4	9	120	8	1	1160
15	4	14	120	9	1	1760
15	4	2	120	10	1	320
15	4	5	120	11	1	680
15	5	9	120	12	1	1162
15	5	14	120	13	1	1762
15	5	2	120	14	1	322
15	5	5	120	15	1	682
15	0	9	120	16	1	1152
15	0	14	120	17	1	1752
15	0	2	120	18	1	312
15	0	5	120	19	1	672
15	1	9	120	20	1	1154
15	1	14	120	21	1	1754
15	1	2	120	22	1	314
15	1	5	120	23	1	674
16	11	5	135	0	1	647
16	11	2	135	1	1	287
16	11	14	135	2	1	1727
16	11	9	135	3	1	1127
16	10	5	135	4	1	645
16	10	2	135	5	1	285
16	10	14	135	6	1	1725
16	10	9	135	7	1	1125
16	7	5	135	8	1	639
16	7	2	135	9	1	279
16	7	14	135	10	1	1719
16	7	9	135	11	1	1119
16	6	5	135	12	1	637
16	6	2	135	13	1	277
16	6	14	135	14	1	1717
16	6	9	135	15	1	1117
16	3	5	135	16	1	631
16	3	2	135	17	1	271
16	3	14	135	18	1	1711
16	3	9	135	19	1	1111
16	2	5	135	20	1	629
16	2	2	135	21	1	269
16	2	14	135	22	1	1709
16	2	9	135	23	1	1109
16	11	4	134	0	1	527
16	11	3	134	1	1	407
16	11	15	134	2	1	1847
16	11	8	134	3	1	1007
16	10	4	134	4	1	525
16	10	3	134	5	1	405
16	10	15	134	6	1	1845
16	10	8	134	7	1	1005
16	7	4	134	8	1	519
16	7	3	134	9	1	399
16	7	15	134	10	1	1839
16	7	8	134	11	1	999
16	6	4	134	12	1	517
16	6	3	134	13	1	397
16	6	15	134	14	1	1837
16	6	8	134	15	1	997
16	3	4	134	16	1	511
16	3	3	134	17	1	391
16	3	15	134	18	1	1831
16	3	8	134	19	1	991
16	2	4	134	20	1	509
16	2	3	134	21	1	389
16	2	15	134	22	1	1829
16	2	8	134	23	1	989
16	11	7	133	0	1	887
16	11	0	133	1	1	47
16	11	12	133	2	1	1487
16	11	11	133	3	1	1367
16	10	7	133	4	1	885
16	10	0	133	5	1	45
16	10	12	133	6	1	1485
16	10	11	133	7	1	1365
16	7	7	133	8	1	879
16	7	0	133	9	1	39
16	7	12	133	10	1	1479
16	7	11	133	11	1	1359
16	6	7	133	12	1	877
16	6	0	133	13	1	37
16	6	12	133	14	1	1477
16	6	11	133	15	1	1357
16	3	7	133	16	1	871
16	3	0	133	17	1	31
16	3	12	133	18	1	1471
16	3	11	133	19	1	1351
16	2	7	133	20	1	869
16	2	0	133	21	1	29
16	2	12	133	22	1	1469
16	2	11	133	23	1	1349
16	11	6	132	0	1	767
16	11	1	132	1	1	167
16	11	13	132	2	1	1607
16	11	10	132	3	1	1247
16	10	6	132	4	1	765
16	10	1	132	5	1	165
16	10	13	132	6	1	1605
16	10	10	132	7	1	1245
16	7	6	132	8	1	759
16	7	1	132	9	1	159
16	7	13	132	10	1	1599
16	7	10	132	11	1	1239
16	6	6	132	12	1	757
16	6	1	132	13	1	157
16	6	13	132	14	1	1597
16	6	10	132	15	1	1237
16	3	6	132	16	1	751
16	3	1	132	17	1	151
16	3	13	132	18	1	1591
16	3	10	132	19	1	1231
16	2	6	132	20	1	749
16	2	1	132	21	1	149
16	2	13	132	22	1	1589
16	2	10	132	23	1	1229
16	8	10	131	0	1	1241
16	8	13	131	1	1	1601
16	8	1	131	2	1	161
16	8	6	131	3	1	761
16	9	10	131	4	1	1243
16	9	13	131	5	1	1603
16	9	1	131	6	1	163
16	9	6	131	7	1	763
16	4	10	131	8	1	1233
16	4	13	131	9	1	1593
16	4	1	131	10	1	153
16	4	6	131	11	1	753
16	5	10	131	12	1	1235
16	5	13	131	13	1	1595
16	5	1	131	14	1	155
16	5	6	131	15	1	755
16	0	10	131	16	1	1225
16	0	13	131	17	1	1585
16	0	1	131	18	1	145
16	0	6	131	19	1	745
16	1	10	131	20	1	1227
16	1	13	131	21	1	1587
16	1	1	131	22	1	147
16	1	6	131	23	1	747
16	8	11	130	0	1	1361
16	8	12	130	1	1	1481
16	8	0	130	2	1	41
16	8	7	130	3	1	881
16	9	11	130	4	1	1363
16	9	12	130	5	1	1483
16	9	0	130	6	1	43
16	9	7	130	7	1	883
16	4	11	130	8	1	1353
16	4	12	130	9	1	1473
16	4	0	130	10	1	33
16	4	7	130	11	1	873
16	5	11	130	12	1	1355
16	5	12	130	13	1	1475
16	5	0	130	14	1	35
16	5	7	130	15	1	875
16	0	11	130	16	1	1345
16	0	12	130	17	1	1465
16	0	0	130	18	1	25
16	0	7	130	19	1	865
16	1	11	130	20	1	1347
16	1	12	130	21	1	1467
16	1	0	130	22	1	27
16	1	7	130	23	1	867
16	8	8	129	0	1	1001
16	8	15	129	1	1	1841
16	8	3	129	2	1	401
16	8	4	129	3	1	521
16	9	8	129	4	1	1003
16	9	15	129	5	1	1843
16	9	3	129	6	1	403
16	9	4	129	7	1	523
16	4	8	129	8	1	993
16	4	15	129	9	1	1833
16	4	3	129	10	1	393
16	4	4	129	11	1	513
16	5	8	129	12	1	995
16	5	15	129	13	1	1835
16	5	3	129	14	1	395
16	5	4	129	15	1	515
16	0	8	129	16	1	985
16	0	15	129	17	1	1825
16	0	3	129	18	1	385
16	0	4	129	19	1	505
16	1	8	129	20	1	987
16	1	15	129	21	1	1827
16	1	3	129	22	1	387
16	1	4	129	23	1	507
16	8	9	128	0	1	1121
16	8	14	128	1	1	1721
16	8	2	128	2	1	281
16	8	5	128	3	1	641
16	9	9	128	4	1	1123
16	9	14	128	5	1	1723
16	9	2	128	6	1	283
16	9	5	128	7	1	643
16	4	9	128	8	1	1113
16	4	14	128	9	1	1713
16	4	2	128	10	1	273
16	4	5	128	11	1	633
16	5	9	128	12	1	1115
16	5	14	128	13	1	1715
16	5	2	128	14	1	275
16	5	5	128	15	1	635
16	0	9	128	16	1	1105
16	0	14	128	17	1	1705
16	0	2	128	18	1	265
16	0	5	128	19	1	625
16	1	9	128	20	1	1107
16	1	14	128	21	1	1707
16	1	2	128	22	1	267
16	1	5	128	23	1	627
17	11	5	143	0	1	695
17	11	2	143	1	1	335
17	11	14	143	2	1	1775
17	11	9	143	3	1	1175
17	10	5	143	4	1	693
17	10	2	143	5	1	333
17	10	14	143	6	1	1773
17	10	9	143	7	1	1173
17	7	5	143	8	1	687
17	7	2	143	9	1	327
17	7	14	143	10	1	1767
17	7	9	143	11	1	1167
17	6	5	143	12	1	685
17	6	2	143	13	1	325
17	6	14	143	14	1	1765
17	6	9	143	15	1	1165
17	3	5	143	16	1	679
17	3	2	143	17	1	319
17	3	14	143	18	1	1759
17	3	9	143	19	1	1159
17	2	5	143	20	1	677
17	2	2	143	21	1	317
17	2	14	143	22	1	1757
17	2	9	143	23	1	1157
17	11	4	142	0	1	575
17	11	3	142	1	1	455
17	11	15	142	2	1	1895
17	11	8	142	3	1	1055
17	10	4	142	4	1	573
17	10	3	142	5	1	453
17	10	15	142	6	1	1893
17	10	8	142	7	1	1053
17	7	4	142	8	1	567
17	7	3	142	9	1	447
17	7	15	142	10	1	1887
17	7	8	142	11	1	1047
17	6	4	142	12	1	565
17	6	3	142	13	1	445
17	6	15	142	14	1	1885
17	6	8	142	15	1	1045
17	3	4	142	16	1	559
17	3	3	142	17	1	439
17	3	15	142	18	1	1879
17	3	8	142	19	1	1039
17	2	4	142	20	1	557
17	2	3	142	21	1	437
17	2	15	142	22	1	1877
17	2	8	142	23	1	1037
17	11	7	141	0	1	935
17	11	0	141	1	1	95
17	11	12	141	2	1	1535
17	11	11	141	3	1	1415
17	10	7	141	4	1	933
17	10	0	141	5	1	93
17	10	12	141	6	1	1533
17	10	11	141	7	1	1413
17	7	7	141	8	1	927
17	7	0	141	9	1	87
17	7	12	141	10	1	1527
17	7	11	141	11	1	1407
17	6	7	141	12	1	925
17	6	0	141	13	1	85
17	6	12	141	14	1	1525
17	6	11	141	15	1	1405
17	3	7	141	16	1	919
17	3	0	141	17	1	79
17	3	12	141	18	1	1519
17	3	11	141	19	1	1399
17	2	7	141	20	1	917
17	2	0	141	21	1	77
17	2	12	141	22	1	1517
17	2	11	141	23	1	1397
17	11	6	140	0	1	815
17	11	1	140	1	1	215
17	11	13	140	2	1	1655
17	11	10	140	3	1	1295
17	10	6	140	4	1	813
17	10	1	140	5	1	213
17	10	13	140	6	1	1653
17	10	10	140	7	1	1293
17	7	6	140	8	1	807
17	7	1	140	9	1	207
17	7	13	140	10	1	1647
17	7	10	140	11	1	1287
17	6	6	140	12	1	805
17	6	1	140	13	1	205
17	6	13	140	14	1	1645
17	6	10	140	15	1	1285
17	3	6	140	16	1	799
17	3	1	140	17	1	199
17	3	13	140	18	1	1639
17	3	10	140	19	1	1279
17	2	6	140	20	1	797
17	2	1	140	21	1	197
17	2	13	140	22	1	1637
17	2	10	140	23	1	1277
17	8	10	139	0	1	1289
17	8	13	139	1	1	1649
17	8	1	139	2	1	209
17	8	6	139	3	1	809
17	9	10	139	4	1	1291
17	9	13	139	5	1	1651
17	9	1	139	6	1	211
17	9	6	139	7	1	811
17	4	10	139	8	1	1281
17	4	13	139	9	1	1641
17	4	1	139	10	1	201
17	4	6	139	11	1	801
17	5	10	139	12	1	1283
17	5	13	139	13	1	1643
17	5	1	139	14	1	203
17	5	6	139	15	1	803
17	0	10	139	16	1	1273
17	0	13	139	17	1	1633
17	0	1	139	18	1	193
17	0	6	139	19	1	793
17	1	10	139	20	1	1275
17	1	13	139	21	1	1635
17	1	1	139	22	1	195
17	1	6	139	23	1	795
17	8	11	138	0	1	1409
17	8	12	138	1	1	1529
17	8	0	138	2	1	89
17	8	7	138	3	1	929
17	9	11	138	4	1	1411
17	9	12	138	5	1	1531
17	9	0	138	6	1	91
17	9	7	138	7	1	931
17	4	11	138	8	1	1401
17	4	12	138	9	1	1521
17	4	0	138	10	1	81
17	4	7	138	11	1	921
17	5	11	138	12	1	1403
17	5	12	138	13	1	1523
17	5	0	138	14	1	83
17	5	7	138	15	1	923
17	0	11	138	16	1	1393
17	0	12	138	17	1	1513
17	0	0	138	18	1	73
17	0	7	138	19	1	913
17	1	11	138	20	1	1395
17	1	12	138	21	1	1515
17	1	0	138	22	1	75
17	1	7	138	23	1	915
17	8	8	137	0	1	1049
17	8	15	137	1	1	1889
17	8	3	137	2	1	449
17	8	4	137	3	1	569
17	9	8	137	4	1	1051
17	9	15	137	5	1	1891
17	9	3	137	6	1	451
17	9	4	137	7	1	571
17	4	8	137	8	1	1041
17	4	15	137	9	1	1881
17	4	3	137	10	1	441
17	4	4	137	11	1	561
17	5	8	137	12	1	1043
17	5	15	137	13	1	1883
17	5	3	137	14	1	443
17	5	4	137	15	1	563
17	0	8	137	16	1	1033
17	0	15	137	17	1	1873
17	0	3	137	18	1	433
17	0	4	137	19	1	553
17	1	8	137	20	1	1035
17	1	15	137	21	1	1875
17	1	3	137	22	1	435
17	1	4	137	23	1	555
17	8	9	136	0	1	1169
17	8	14	136	1	1	1769
17	8	2	136	2	1	329
17	8	5	136	3	1	689
17	9	9	136	4	1	1171
17	9	14	136	5	1	1771
17	9	2	136	6	1	331
17	9	5	136	7	1	691
17	4	9	136	8	1	1161
17	4	14	136	9	1	1761
17	4	2	136	10	1	321
17	4	5	136	11	1	681
17	5	9	136	12	1	1163
17	5	14	136	13	1	1763
17	5	2	136	14	1	323
17	5	5	136	15	1	683
17	0	9	136	16	1	1153
17	0	14	136	17	1	1753
17	0	2	136	18	1	313
17	0	5	136	19	1	673
17	1	9	136	20	1	1155
17	1	14	136	21	1	1755
17	1	2	136	22	1	315
17	1	5	136	23	1	675
18	11	5	151	0	1	671
18	11	2	151	1	1	311
18	11	14	151	2	1	1751
18	11	9	151	3	1	1151
18	10	5	151	4	1	669
18	10	2	151	5	1	309
18	10	14	151	6	1	1749
18	10	9	151	7	1	1149
18	7	5	151	8	1	663
18	7	2	151	9	1	303
18	7	14	151	10	1	1743
18	7	9	151	11	1	1143
18	6	5	151	12	1	661
18	6	2	151	13	1	301
18	6	14	151	14	1	1741
18	6	9	151	15	1	1141
18	3	5	151	16	1	655
18	3	2	151	17	1	295
18	3	14	151	18	1	1735
18	3	9	151	19	1	1135
18	2	5	151	20	1	653
18	2	2	151	21	1	293
18	2	14	151	22	1	1733
18	2	9	151	23	1	1133
18	11	4	150	0	1	551
18	11	3	150	1	1	431
18	11	15	150	2	1	1871
18	11	8	150	3	1	1031
18	10	4	150	4	1	549
18	10	3	150	5	1	429
18	10	15	150	6	1	1869
18	10	8	150	7	1	1029
18	7	4	150	8	1	543
18	7	3	150	9	1	423
18	7	15	150	10	1	1863
18	7	8	150	11	1	1023
18	6	4	150	12	1	541
18	6	3	150	13	1	421
18	6	15	150	14	1	1861
18	6	8	150	15	1	1021
18	3	4	150	16	1	535
18	3	3	150	17	1	415
18	3	15	150	18	1	1855
18	3	8	150	19	1	1015
18	2	4	150	20	1	533
18	2	3	150	21	1	413
18	2	15	150	22	1	1853
18	2	8	150	23	1	1013
18	11	7	149	0	1	911
18	11	0	149	1	1	71
18	11	12	149	2	1	1511
18	11	11	149	3	1	1391
18	10	7	149	4	1	909
18	10	0	149	5	1	69
18	10	12	149	6	1	1509
18	10	11	149	7	1	1389
18	7	7	149	8	1	903
18	7	0	149	9	1	63
18	7	12	149	10	1	1503
18	7	11	149	11	1	1383
18	6	7	149	12	1	901
18	6	0	149	13	1	61
18	6	12	149	14	1	1501
18	6	11	149	15	1	1381
18	3	7	149	16	1	895
18	3	0	149	17	1	55
18	3	12	149	18	1	1495
18	3	11	149	19	1	1375
18	2	7	149	20	1	893
18	2	0	149	21	1	53
18	2	12	149	22	1	1493
18	2	11	149	23	1	1373
18	11	6	148	0	1	791
18	11	1	148	1	1	191
18	11	13	148	2	1	1631
18	11	10	148	3	1	1271
18	10	6	148	4	1	789
18	10	1	148	5	1	189
18	10	13	148	6	1	1629
18	10	10	148	7	1	1269
18	7	6	148	8	1	783
18	7	1	148	9	1	183
18	7	13	148	10	1	1623
18	7	10	148	11	1	1263
18	6	6	148	12	1	781
18	6	1	148	13	1	181
18	6	13	148	14	1	1621
18	6	10	148	15	1	1261
18	3	6	148	16	1	775
18	3	1	148	17	1	175
18	3	13	148	18	1	1615
18	3	10	148	19	1	1255
18	2	6	148	20	1	773
18	2	1	148	21	1	173
18	2	13	148	22	1	1613
18	2	10	148	23	1	1253
18	8	10	147	0	1	1265
18	8	13	147	1	1	1625
18	8	1	147	2	1	185
18	8	6	147	3	1	785
18	9	10	147	4	1	1267
18	9	13	147	5	1	1627
18	9	1	147	6	1	187
18	9	6	147	7	1	787
18	4	10	147	8	1	1257
18	4	13	147	9	1	1617
18	4	1	147	10	1	177
18	4	6	147	11	1	777
18	5	10	147	12	1	1259
18	5	13	147	13	1	1619
18	5	1	147	14	1	179
18	5	6	147	15	1	779
18	0	10	147	16	1	1249
18	0	13	147	17	1	1609
18	0	1	147	18	1	169
18	0	6	147	19	1	769
18	1	10	147	20	1	1251
18	1	13	147	21	1	1611
18	1	1	147	22	1	171
18	1	6	147	23	1	771
18	8	11	146	0	1	1385
18	8	12	146	1	1	1505
18	8	0	146	2	1	65
18	8	7	146	3	1	905
18	9	11	146	4	1	1387
18	9	12	146	5	1	1507
18	9	0	146	6	1	67
18	9	7	146	7	1	907
18	4	11	146	8	1	1377
18	4	12	146	9	1	1497
18	4	0	146	10	1	57
18	4	7	146	11	1	897
18	5	11	146	12	1	1379
18	5	12	146	13	1	1499
18	5	0	146	14	1	59
18	5	7	146	15	1	899
18	0	11	146	16	1	1369
18	0	12	146	17	1	1489
18	0	0	146	18	1	49
18	0	7	146	19	1	889
18	1	11	146	20	1	1371
18	1	12	146	21	1	1491
18	1	0	146	22	1	51
18	1	7	146	23	1	891
18	8	8	145	0	1	1025
18	8	15	145	1	1	1865
18	8	3	145	2	1	425
18	8	4	145	3	1	545
18	9	8	145	4	1	1027
18	9	15	145	5	1	1867
18	9	3	145	6	1	427
18	9	4	145	7	1	547
18	4	8	145	8	1	1017
18	4	15	145	9	1	1857
18	4	3	145	10	1	417
18	4	4	145	11	1	537
18	5	8	145	12	1	1019
18	5	15	145	13	1	1859
18	5	3	145	14	1	419
18	5	4	145	15	1	539
18	0	8	145	16	1	1009
18	0	15	145	17	1	1849
18	0	3	145	18	1	409
18	0	4	145	19	1	529
18	1	8	145	20	1	1011
18	1	15	145	21	1	1851
18	1	3	145	22	1	411
18	1	4	145	23	1	531
18	8	9	144	0	1	1145
18	8	14	144	1	1	1745
18	8	2	144	2	1	305
18	8	5	144	3	1	665
18	9	9	144	4	1	1147
18	9	14	144	5	1	1747
18	9	2	144	6	1	307
18	9	5	144	7	1	667
18	4	9	144	8	1	1137
18	4	14	144	9	1	1737
18	4	2	144	10	1	297
18	4	5	144	11	1	657
18	5	9	144	12	1	1139
18	5	14	144	13	1	1739
18	5	2	144	14	1	299
18	5	5	144	15	1	659
18	0	9	144	16	1	1129
18	0	14	144	17	1	1729
18	0	2	144	18	1	289
18	0	5	144	19	1	649
18	1	9	144	20	1	1131
18	1	14	144	21	1	1731
18	1	2	144	22	1	291
18	1	5	144	23	1	651
19	11	5	159	0	1	719
19	11	2	159	1	1	359
19	11	14	159	2	1	1799
19	11	9	159	3	1	1199
19	10	5	159	4	1	717
19	10	2	159	5	1	357
19	10	14	159	6	1	1797
19	10	9	159	7	1	1197
19	7	5	159	8	1	711
19	7	2	159	9	1	351
19	7	14	159	10	1	1791
19	7	9	159	11	1	1191
19	6	5	159	12	1	709
19	6	2	159	13	1	349
19	6	14	159	14	1	1789
19	6	9	159	15	1	1189
19	3	5	159	16	1	703
19	3	2	159	17	1	343
19	3	14	159	18	1	1783
19	3	9	159	19	1	1183
19	2	5	159	20	1	701
19	2	2	159	21	1	341
19	2	14	159	22	1	1781
19	2	9	159	23	1	1181
19	11	4	158	0	1	599
19	11	3	158	1	1	479
19	11	15	158	2	1	1919
19	11	8	158	3	1	1079
19	10	4	158	4	1	597
19	10	3	158	5	1	477
19	10	15	158	6	1	1917
19	10	8	158	7	1	1077
19	7	4	158	8	1	591
19	7	3	158	9	1	471
19	7	15	158	10	1	1911
19	7	8	158	11	1	1071
19	6	4	158	12	1	589
19	6	3	158	13	1	469
19	6	15	158	14	1	1909
19	6	8	158	15	1	1069
19	3	4	158	16	1	583
19	3	3	158	17	1	463
19	3	15	158	18	1	1903
19	3	8	158	19	1	1063
19	2	4	158	20	1	581
19	2	3	158	21	1	461
19	2	15	158	22	1	1901
19	2	8	158	23	1	1061
19	11	7	157	0	1	959
19	11	0	157	1	1	119
19	11	12	157	2	1	1559
19	11	11	157	3	1	1439
19	10	7	157	4	1	957
19	10	0	157	5	1	117
19	10	12	157	6	1	1557
19	10	11	157	7	1	1437
19	7	7	157	8	1	951
19	7	0	157	9	1	111
19	7	12	157	10	1	1551
19	7	11	157	11	1	1431
19	6	7	157	12	1	949
19	6	0	157	13	1	109
19	6	12	157	14	1	1549
19	6	11	157	15	1	1429
19	3	7	157	16	1	943
19	3	0	157	17	1	103
19	3	12	157	18	1	1543
19	3	11	157	19	1	1423
19	2	7	157	20	1	941
19	2	0	157	21	1	101
19	2	12	157	22	1	1541
19	2	11	157	23	1	1421
19	11	6	156	0	1	839
19	11	1	156	1	1	239
19	11	13	156	2	1	1679
19	11	10	156	3	1	1319
19	10	6	156	4	1	837
19	10	1	156	5	1	237
19	10	13	156	6	1	1677
19	10	10	156	7	1	1317
19	7	6	156	8	1	831
19	7	1	156	9	1	231
19	7	13	156	10	1	1671
19	7	10	156	11	1	1311
19	6	6	156	12	1	829
19	6	1	156	13	1	229
19	6	13	156	14	1	1669
19	6	10	156	15	1	1309
19	3	6	156	16	1	823
19	3	1	156	17	1	223
19	3	13	156	18	1	1663
19	3	10	156	19	1	1303
19	2	6	156	20	1	821
19	2	1	156	21	1	221
19	2	13	156	22	1	1661
19	2	10	156	23	1	1301
19	8	10	155	0	1	1313
19	8	13	155	1	1	1673
19	8	1	155	2	1	233
19	8	6	155	3	1	833
19	9	10	155	4	1	1315
19	9	13	155	5	1	1675
19	9	1	155	6	1	235
19	9	6	155	7	1	835
19	4	10	155	8	1	1305
19	4	13	155	9	1	1665
19	4	1	155	10	1	225
19	4	6	155	11	1	825
19	5	10	155	12	1	1307
19	5	13	155	13	1	1667
19	5	1	155	14	1	227
19	5	6	155	15	1	827
19	0	10	155	16	1	1297
19	0	13	155	17	1	1657
19	0	1	155	18	1	217
19	0	6	155	19	1	817
19	1	10	155	20	1	1299
19	1	13	155	21	1	1659
19	1	1	155	22	1	219
19	1	6	155	23	1	819
19	8	11	154	0	1	1433
19	8	12	154	1	1	1553
19	8	0	154	2	1	113
19	8	7	154	3	1	953
19	9	11	154	4	1	1435
19	9	12	154	5	1	1555
19	9	0	154	6	1	115
19	9	7	154	7	1	955
19	4	11	154	8	1	1425
19	4	12	154	9	1	1545
19	4	0	154	10	1	105
19	4	7	154	11	1	945
19	5	11	154	12	1	1427
19	5	12	154	13	1	1547
19	5	0	154	14	1	107
19	5	7	154	15	1	947
19	0	11	154	16	1	1417
19	0	12	154	17	1	1537
19	0	0	154	18	1	97
19	0	7	154	19	1	937
19	1	11	154	20	1	1419
19	1	12	154	21	1	1539
19	1	0	154	22	1	99
19	1	7	154	23	1	939
19	8	8	153	0	1	1073
19	8	15	153	1	1	1913
19	8	3	153	2	1	473
19	8	4	153	3	1	593
19	9	8	153	4	1	1075
19	9	15	153	5	1	1915
19	9	3	153	6	1	475
19	9	4	153	7	1	595
19	4	8	153	8	1	1065
19	4	15	153	9	1	1905
19	4	3	153	10	1	465
19	4	4	153	11	1	585
19	5	8	153	12	1	1067
19	5	15	153	13	1	1907
19	5	3	153	14	1	467
19	5	4	153	15	1	587
19	0	8	153	16	1	1057
19	0	15	153	17	1	1897
19	0	3	153	18	1	457
19	0	4	153	19	1	577
19	1	8	153	20	1	1059
19	1	15	153	21	1	1899
19	1	3	153	22	1	459
19	1	4	153	23	1	579
19	8	9	152	0	1	1193
19	8	14	152	1	1	1793
19	8	2	152	2	1	353
19	8	5	152	3	1	713
19	9	9	152	4	1	1195
19	9	14	152	5	1	1795
19	9	2	152	6	1	355
19	9	5	152	7	1	715
19	4	9	152	8	1	1185
19	4	14	152	9	1	1785
19	4	2	152	10	1	345
19	4	5	152	11	1	705
19	5	9	152	12	1	1187
19	5	14	152	13	1	1787
19	5	2	152	14	1	347
19	5	5	152	15	1	707
19	0	9	152	16	1	1177
19	0	14	152	17	1	1777
19	0	2	152	18	1	337
19	0	5	152	19	1	697
19	1	9	152	20	1	1179
19	1	14	152	21	1	1779
19	1	2	152	22	1	339
19	1	5	152	23	1	699
